<?xml version="1.0" encoding="utf-8"?>
<!-- Generator: Adobe Illustrator 20.1.0, SVG Export Plug-In . SVG Version: 6.00 Build 0)  -->
<svg version="1.1" id="Vrstva_1" xmlns="http://www.w3.org/2000/svg" xmlns:xlink="http://www.w3.org/1999/xlink" x="0px" y="0px"
	 viewBox="0 0 24 24" style="enable-background:new 0 0 24 24;" xml:space="preserve">
<path d="M19,3H5C3.9,3,3,3.9,3,5v14c0,1.1,0.9,2,2,2h14c1.1,0,2-0.9,2-2V5C21,3.9,20.1,3,19,3z M19,13.6h-4.5v2.5c0,0.6-0.4,1-1,1
	h-3c-0.6,0-1-0.4-1-1v-2.5H5V5h14V13.6z"
      style="opacity:1;fill:#000000;fill-opacity:1"/>
<polygon points="8.4,9.4 11.1,9.4 11.1,12.8 12.8,12.8 12.8,9.4 15.6,9.4 12,5.8 "
      style="opacity:1;fill:#000000;fill-opacity:1"/>
</svg>
