<svg xmlns="http://www.w3.org/2000/svg" xmlns:xlink="http://www.w3.org/1999/xlink" viewBox="0 0 300 300">
  <defs>
    <style>
      .a, .j {
        fill: #fff;
      }

      .a, .c, .d, .e, .f, .g, .h, .i, .p, .q, .s {
        fill-rule: evenodd;
      }

      .b {
        fill: #3ea6ff;
      }

      .c {
        fill: #7ac943;
      }

      .d {
        fill: #b3e6ff;
      }

      .e {
        fill: #fcb0b0;
      }

      .f {
        fill: #fcd6d6;
      }

      .g {
        fill: #f9d3ff;
      }

      .h {
        fill: #8d4c9c;
      }

      .i {
        fill: url(#a);
      }

      .k {
        fill: url(#b);
      }

      .l {
        fill: url(#c);
      }

      .m {
        fill: url(#d);
      }

      .n {
        fill: #ebb700;
      }

      .o {
        mask: url(#e);
      }

      .p {
        fill: #f8f6f6;
      }

      .q {
        fill: #fcb713;
      }

      .r {
        mask: url(#f);
      }

      .s {
        fill: #2462a2;
      }

      .t {
        fill: url(#g);
      }

      .u {
        fill: url(#h);
      }

      .v {
        fill: url(#i);
      }

      .w {
        fill: url(#j);
      }
    </style>
    <linearGradient id="a" data-name="Nepojmenovaný přechod 5" x1="-2102.99779" y1="616.44378" x2="-2102.80795" y2="616.1222" gradientTransform="matrix(212, 0, 0, -210, 445969.68912, 129643)" gradientUnits="userSpaceOnUse">
      <stop offset="0"/>
      <stop offset="1"/>
    </linearGradient>
    <linearGradient id="b" data-name="Nepojmenovaný přechod 2" x1="-2002.00802" y1="615.25723" x2="-2002.06244" y2="615.56138" gradientTransform="matrix(18.3871, 0, 0, -49.6366, 36960.111, 30760.28181)" gradientUnits="userSpaceOnUse">
      <stop offset="0.00562" stop-color="#bebebe"/>
      <stop offset="0.04185" stop-color="#c5c5c5"/>
      <stop offset="0.2741" stop-color="#efefef"/>
      <stop offset="0.3933" stop-color="#fff"/>
    </linearGradient>
    <linearGradient id="c" data-name="Nepojmenovaný přechod 3" x1="-1988.42511" y1="615.77767" x2="-1988.48751" y2="616.04737" gradientTransform="matrix(16.54839, 0, 0, -58.82857, 33041.89545, 36459.30135)" gradientUnits="userSpaceOnUse">
      <stop offset="0" stop-color="#df8200"/>
      <stop offset="0.5289" stop-color="#e8a800"/>
      <stop offset="0.7135" stop-color="#ebb700"/>
      <stop offset="1" stop-color="#ebb700"/>
    </linearGradient>
    <linearGradient id="d" data-name="Nepojmenovaný přechod 4" x1="-2089.151" y1="615.90373" x2="-2088.78055" y2="615.90373" gradientTransform="matrix(86.41936, 0, 0, -56.99018, 180676.17135, 35326.85054)" gradientUnits="userSpaceOnUse">
      <stop offset="0" stop-color="#fcc200"/>
      <stop offset="0.9407" stop-color="#ecb800"/>
      <stop offset="1" stop-color="#ebb700"/>
    </linearGradient>
    <mask id="e" x="160.55777" y="241.42618" width="68.16333" height="67.42242" maskUnits="userSpaceOnUse">
      <polygon class="a" points="160.558 241.426 228.721 241.426 228.721 308.849 160.558 308.849 160.558 241.426"/>
    </mask>
    <mask id="f" x="63.12876" y="221.05128" width="69.27469" height="68.53378" maskUnits="userSpaceOnUse">
      <polygon class="a" points="63.129 221.051 132.403 221.051 132.403 289.585 63.129 289.585 63.129 221.051"/>
    </mask>
    <linearGradient id="g" x1="29.19804" y1="17.00717" x2="101.27211" y2="17.00717" gradientTransform="matrix(1, 0, 0, 1, 0, 0)" xlink:href="#a"/>
    <linearGradient id="h" data-name="Nepojmenovaný přechod 7" x1="82.11178" y1="615.79903" x2="79.60692" y2="621.1707" gradientTransform="matrix(1, 0, 0, -1, 0, 634)" xlink:href="#b"/>
    <linearGradient id="i" data-name="Nepojmenovaný přechod 6" x1="79.34018" y1="611.27699" x2="74.56464" y2="616.96826" gradientTransform="matrix(1, 0, 0, -1, 0, 634)" gradientUnits="userSpaceOnUse">
      <stop offset="0" stop-color="#df8200"/>
      <stop offset="0.5289" stop-color="#e8a800"/>
      <stop offset="0.7135" stop-color="#ebb700"/>
      <stop offset="1" stop-color="#ebb700"/>
    </linearGradient>
    <linearGradient id="j" x1="75.83144" y1="613.92462" x2="87.29498" y2="613.92462" gradientTransform="matrix(1, 0, 0, -1, 0, 634)" xlink:href="#d"/>
  </defs>
  <rect class="b" x="-3.30576" y="-1.34616" width="306.61151" height="306.61151"/>
  <g>
    <g>
      <path class="c" d="M160.1875,176.22648a15.0045,15.0045,0,1,0,15.00334-14.81811,14.91174,14.91174,0,0,0-15.00334,14.81811"/>
      <path class="a" d="M185.37829,181.24384l-1.78285-5.38781-5.19951,1.77751.59637,1.83977,2.12185-.69421a6.3243,6.3243,0,0,1-8.55917,2.98127,6.50933,6.50933,0,0,1-3.16175-3.56452l-1.79667.625a8.28021,8.28021,0,0,0,13.67364,3.06874,8.02459,8.02459,0,0,0,1.57945-2.27038l.74579,2.27038Z"/>
      <path class="a" d="M171.65906,173.96047l-2.09732.65845a5.96855,5.96855,0,0,1,1.5612-2.50172,6.40528,6.40528,0,0,1,8.94562-.004,6.18672,6.18672,0,0,1,1.68175,2.95342l1.77572-.59922a8.23743,8.23743,0,0,0-15.653-.65825l-.71041-2.1793-1.78882.57273,1.68849,5.1353,5.17291-1.61944Z"/>
    </g>
    <g>
      <path class="d" d="M118.32633,186.96961a20.561,20.561,0,1,1-20.56014-20.74536,20.65332,20.65332,0,0,1,20.56014,20.74536"/>
      <g>
        <polygon class="e" points="87.713 199.666 105.674 199.666 105.674 172.892 87.713 172.892 87.713 199.666"/>
        <polygon class="a" points="89.169 176.646 103.975 176.646 103.975 175.395 89.169 175.395 89.169 176.646"/>
        <polygon class="a" points="89.169 184.653 103.975 184.653 103.975 183.402 89.169 183.402 89.169 184.653"/>
        <polygon class="a" points="89.169 190.658 103.975 190.658 103.975 189.407 89.169 189.407 89.169 190.658"/>
        <polygon class="a" points="89.169 196.663 103.975 196.663 103.975 195.412 89.169 195.412 89.169 196.663"/>
        <polygon class="a" points="89.169 186.654 103.975 186.654 103.975 185.403 89.169 185.403 89.169 186.654"/>
        <polygon class="a" points="89.412 178.647 96.208 178.647 96.208 177.396 89.412 177.396 89.412 178.647"/>
        <polygon class="a" points="97.179 178.647 103.975 178.647 103.975 177.396 97.179 177.396 97.179 178.647"/>
        <polygon class="a" points="89.412 180.649 96.208 180.649 96.208 179.398 89.412 179.398 89.412 180.649"/>
        <polygon class="a" points="97.179 180.649 103.975 180.649 103.975 179.398 97.179 179.398 97.179 180.649"/>
        <polygon class="a" points="89.412 182.651 96.208 182.651 96.208 181.4 89.412 181.4 89.412 182.651"/>
        <polygon class="a" points="89.412 192.66 96.208 192.66 96.208 191.409 89.412 191.409 89.412 192.66"/>
        <polygon class="a" points="89.412 194.661 96.208 194.661 96.208 193.41 89.412 193.41 89.412 194.661"/>
        <polygon class="a" points="97.179 188.656 103.975 188.656 103.975 187.405 97.179 187.405 97.179 188.656"/>
        <polygon class="f" points="90.626 201.417 108.586 201.417 108.586 174.644 90.626 174.644 90.626 201.417"/>
        <polygon class="a" points="92.325 178.397 107.13 178.397 107.13 177.146 92.325 177.146 92.325 178.397"/>
        <polygon class="a" points="92.325 186.404 107.13 186.404 107.13 185.153 92.325 185.153 92.325 186.404"/>
        <polygon class="a" points="92.325 192.409 107.13 192.409 107.13 191.158 92.325 191.158 92.325 192.409"/>
        <polygon class="a" points="92.325 198.415 107.13 198.415 107.13 197.164 92.325 197.164 92.325 198.415"/>
        <polygon class="a" points="92.325 188.406 107.13 188.406 107.13 187.155 92.325 187.155 92.325 188.406"/>
        <polygon class="a" points="92.325 180.399 99.121 180.399 99.121 179.148 92.325 179.148 92.325 180.399"/>
        <polygon class="a" points="100.091 180.399 106.887 180.399 106.887 179.148 100.091 179.148 100.091 180.399"/>
        <polygon class="a" points="92.325 182.401 99.121 182.401 99.121 181.15 92.325 181.15 92.325 182.401"/>
        <polygon class="a" points="100.091 182.401 106.887 182.401 106.887 181.15 100.091 181.15 100.091 182.401"/>
        <polygon class="a" points="92.325 184.402 99.121 184.402 99.121 183.151 92.325 183.151 92.325 184.402"/>
        <polygon class="a" points="92.325 194.411 99.121 194.411 99.121 193.16 92.325 193.16 92.325 194.411"/>
        <polygon class="a" points="92.325 196.413 99.121 196.413 99.121 195.162 92.325 195.162 92.325 196.413"/>
        <polygon class="a" points="100.091 190.408 106.887 190.408 106.887 189.157 100.091 189.157 100.091 190.408"/>
      </g>
    </g>
    <path class="g" d="M236.87124,210.30814a23.52449,23.52449,0,1,1-23.52376-23.33853,23.43164,23.43164,0,0,1,23.52376,23.33853"/>
    <g>
      <path class="h" d="M210.19858,207.10008h17.041v-.55041h-17.041Zm0,1.4674h17.041v-.55026h-17.041Zm9.26146,2.93479h7.77952V210.952H219.46Zm-9.26146,1.46755h17.041v-.55025h-17.041Zm0,1.46725h17.041v-.55026h-17.041Zm-1.48162,1.284h-.98734a2.64412,2.64412,0,0,0,.061-.55025,3.75956,3.75956,0,0,0-7.40889,0,2.64406,2.64406,0,0,0,.0609.55025h-.98718V204.89891H208.717Zm1.48162-4.21882h7.77952V210.952h-7.77952Zm0-5.86974h7.77952v-.55025h-7.77952Zm16.54158-4.58571H200.69571a3.07764,3.07764,0,0,0-3.09247,3.06231v12.76833a3.07747,3.07747,0,0,0,3.09247,3.06246h26.04445a3.07748,3.07748,0,0,0,3.09248-3.06246V204.10913a3.07765,3.07765,0,0,0-3.09248-3.06231Z"/>
      <path class="a" d="M204.08608,206.82333a2.26068,2.26068,0,1,1-2.22271,2.26044,2.24172,2.24172,0,0,1,2.22271-2.26044Zm-4.63058,9.04161h.98717a2.78545,2.78545,0,0,1-.0609-.56507,3.74378,3.74378,0,0,1,7.40878,0,2.7855,2.7855,0,0,1-.061.56507h.98732V204.75135H199.4555Z"/>
      <path class="h" d="M203.90094,211.04905a2.22272,2.22272,0,1,0-2.22272-2.2228,2.22276,2.22276,0,0,0,2.22272,2.2228"/>
      <polygon class="a" points="210.199 205.863 217.978 205.863 217.978 205.082 210.199 205.082 210.199 205.863"/>
      <polygon class="a" points="210.199 211.79 217.978 211.79 217.978 211.049 210.199 211.049 210.199 211.79"/>
      <polygon class="a" points="219.46 211.79 227.239 211.79 227.239 211.049 219.46 211.049 219.46 211.79"/>
      <polygon class="a" points="210.199 207.345 227.239 207.345 227.239 206.604 210.199 206.604 210.199 207.345"/>
      <polygon class="a" points="210.199 208.826 227.239 208.826 227.239 208.085 210.199 208.085 210.199 208.826"/>
      <polygon class="a" points="210.199 213.272 227.239 213.272 227.239 212.531 210.199 212.531 210.199 213.272"/>
      <polygon class="a" points="210.199 214.754 227.239 214.754 227.239 214.013 210.199 214.013 210.199 214.754"/>
    </g>
    <g>
      <path class="i" d="M192.04644,221.05128a39.26976,39.26976,0,1,1-39.268-38.89755,39.084,39.084,0,0,1,39.268,38.89755"/>
      <g>
        <path class="j" d="M158.1337,204.93545h-12.848v18.49663a40.40985,40.40985,0,0,1,6.52009-3.8885V211.5564h6.32788v.015a9.36953,9.36953,0,0,1,0,18.73685h-6.32788v-5.7802c0-.16514-.14785-.16514-.22178-.10509a30.01765,30.01765,0,0,0-6.29831,5.99039v6.53087h12.848a16.00628,16.00628,0,0,0,0-32.00878Z"/>
        <polygon class="k" points="152.157 219.461 145.345 223.323 145.345 204.935 152.157 211.512 152.157 219.461"/>
        <rect class="l" x="133.08469" y="215.15102" width="6.1304" height="21.79321"/>
        <path class="m" d="M165.09778,216.50794a.66708.66708,0,0,0-.19267-.483.85966.85966,0,0,0-.77069-.18112,40.00918,40.00918,0,0,0-31.04973,21.1004h6.26923a40.6726,40.6726,0,0,1,25.24-19.84766C164.994,216.96073,165.1126,216.71924,165.09778,216.50794Z"/>
        <path class="n" d="M136.1425,204.93545a3.74571,3.74571,0,1,1-3.739,3.74571A3.7498,3.7498,0,0,1,136.1425,204.93545Z"/>
      </g>
      <g>
        <g class="o">
          <path class="p" d="M228.7211,275.13739a34.0837,34.0837,0,1,1-34.08167-33.71121,33.89787,33.89787,0,0,1,34.08167,33.71121"/>
        </g>
        <path class="q" d="M217.03793,261.5258a.44193.44193,0,0,0-.37016-.24233l-17.17451.00553c-.25056,0-.44973.25983-.44973.58923v4.876a.52493.52493,0,0,0,.44973.57725h7.46815l-16.09814,16.30869a.59062.59062,0,0,0,0,.81912l3.41234,3.45707a.6162.6162,0,0,0,.809,0l16.069-16.28565V287.587a.52979.52979,0,0,0,.58115.46208h4.82431a.52154.52154,0,0,0,.56979-.46208V261.76813a.367.367,0,0,0-.091-.24233"/>
        <path class="q" d="M194.87862,261.28347H172.601a.43015.43015,0,0,0-.34948.225.424.424,0,0,0-.10121.26047v25.83686a.52161.52161,0,0,0,.56314.46194h4.77226a.52074.52074,0,0,0,.56943-.46194V271.638l9.437,9.66755a.50747.50747,0,0,0,.72146-.09266l3.36937-3.4475a.53289.53289,0,0,0,.07872-.73348l-9.44871-9.69614h12.66559a.53389.53389,0,0,0,.45654-.58365v-4.885a.53359.53359,0,0,0-.45654-.58365"/>
      </g>
      <g>
        <g class="r">
          <path class="s" d="M132.40345,255.31817A34.63935,34.63935,0,1,1,97.7661,221.05128a34.45352,34.45352,0,0,1,34.63735,34.26689"/>
        </g>
        <path class="a" d="M98.42934,261.26554c-.21241.07242-.70743.07242-1.2029-.6513-.495-.72326.28306-.86809.28306-1.37455s-1.13179-1.447-1.55615-1.59182-.14131-.57888-.35372-.72371c-.21241-.14438-.63632-.2168-3.74954-.2168s-3.74954,1.881-4.10371,1.881a2.88962,2.88962,0,0,1-1.83922-1.01293c-.14131,1.01293,1.2029,1.51985.77808,1.66423-.63632.14483-.99-.21726-1.98052-.21726-2.54665,0-2.75906,1.88148-2.75906,1.88148,1.486-1.51939,6.15489-1.37456,6.15489-.57888,0,.72326-.77808.36163-.77808.57888a9.11719,9.11719,0,0,1,.99049,3.54525,3.70225,3.70225,0,0,1-3.53759,3.69008c-.84873,0-1.13179-.941-1.83922-1.59226a1.291,1.291,0,0,0-1.62727-.072s.42437-.07242.42437.21725c0,.28921-.35326.28921-.35326.72326,0,.86855,1.2731.6513,1.485.6513a.68457.68457,0,0,1,.70788.6513c0,.506-3.74954,0-3.18342.28967.56567.28875.35326.72326.35326,1.1573a.79432.79432,0,0,0,.77808.79568,1.94208,1.94208,0,0,0,1.27355-.72326c.42482-.43405.70788-.21679.84919-.07242a.47232.47232,0,0,1-.07111.6513c-.42391.28921-1.76857,1.22972-1.48551,1.22972.28352,0,.56613,0,.56613.14484a.7693.7693,0,0,0,.77853.72372,1.05431,1.05431,0,0,0,1.06114-1.01293c0-1.08535.42391-1.73665.99049-1.73665.56567,0,.56567.79568.56567,1.23019a.69665.69665,0,0,0,.77807.72371c.49548,0,.56613-.50692.56613-.72371,0-.21726.70743-.14484.84873-.14484.14176,0-.35372-.43405-.99-.86809-.63724-.43451-.49548-.6513-.21241-.72372s4.81022-1.30214,4.457-1.44743a.597.597,0,0,1-.21241-.86764c.49548-.86855,3.11277.94051,3.11277.94051a4.18877,4.18877,0,0,0-2.90036-2.24311c-.63677,0-.63677-.28967-.63677-.28967-.63678-3.69008.28306-4.55772,1.4855-4.703a27.64379,27.64379,0,0,1,3.8202.50692c1.69837.21679,2.47645-.36209,2.264-.28967"/>
        <path class="a" d="M115.20091,241.16431c.06647-.443.59786-1.0335.79728-1.69822a2.44186,2.44186,0,0,0-.39885-2.362,7.25158,7.25158,0,0,1-1.26177-1.47649c0,.51675.46533,1.62446.06648,1.69822-.92982.14751-1.66021-1.91949-1.66021-1.91949a2.68984,2.68984,0,0,0,.53139,1.91949c.73038.738,1.52767,1.84572.92981,2.28872-.53138.443-1.32825-.95975-1.32825-.95975a2.08016,2.08016,0,0,0,1.26177,2.14029c.13254,1.25523-2.65691,3.91272-2.65691,3.91272l.92982.886a13.85424,13.85424,0,0,0,2.78944-4.42947"/>
        <path class="a" d="M100.099,244.20437c.20677-2.12226-.20632-2.75885-.20632-2.75885a.47854.47854,0,0,1-.06938-.42454.37848.37848,0,0,1,.34462-.21205h.13785a2.95588,2.95588,0,0,0,1.23971-.142,4.19887,4.19887,0,0,0-2.06634-1.27364.36845.36845,0,0,1-.20677-.49507.35368.35368,0,0,1,.48247-.212c.61985.212,2.54835.9906,2.54835,1.98075a.65016.65016,0,0,1-.20631.49507,1.82053,1.82053,0,0,1-1.3091.354,8.96921,8.96921,0,0,1,.13785,2.68832.37353.37353,0,0,1-.34417.354c-.34462,0-.48246-.14151-.48246-.354ZM97.757,253.755a.23854.23854,0,0,0-.13739.071.378.378,0,0,1-.34462-.2125.41219.41219,0,0,1,.13785-.49507,2.81,2.81,0,0,0,1.51541-2.26378.34452.34452,0,1,1,.68878,0,3.24634,3.24634,0,0,1-1.85957,2.90036Zm-3.02991.071a.23733.23733,0,0,0-.13785.07053.37718.37718,0,0,1-.34462-.2125.41185.41185,0,0,1,.13785-.49508c1.72219-.91961,1.79065-2.12226,1.79065-2.12226a.38869.38869,0,0,1,.41309-.35356.39279.39279,0,0,1,.34416.42455,3.49072,3.49072,0,0,1-2.20373,2.68832Zm.20632-7.78241c.06892-.212.34462-.212.48247-.14105a1.94379,1.94379,0,0,1,.89509,1.27317,4.51138,4.51138,0,0,1-.68878,3.32492.37732.37732,0,0,1-.34416.2125.24807.24807,0,0,1-.20677-.071c-.20678-.07052-.20678-.35356-.13785-.49507a3.56343,3.56343,0,0,0,.61985-2.68833,1.52707,1.52707,0,0,0-.55093-.84909.76917.76917,0,0,1-.06892-.56606Zm2.6862-2.33431a.44806.44806,0,0,1,.482-.14151c.06892.07052,1.72172,1.06113,1.03294,4.24453a.45889.45889,0,0,1-.34416.283h-.06893c-.20631-.07053-.34416-.2125-.27569-.42408.55139-2.6178-.6194-3.39637-.68878-3.4669-.20632-.07052-.20632-.283-.13739-.49507Zm-.06893-7.07483a.75959.75959,0,0,1-.7577-.42455s1.10187-.14105,1.10187-.35356c0-.14151-.34417-.071-.34417-.071h-.96447a.789.789,0,0,1-.20678-.49508s0-.212.34462-.212h1.72173s.34462,0,.34462.28257c0,.28349-.41309.2125-.41309.2125s0,1.06114-.82663,1.06114Zm-3.99484,10.32876c-.06938,0-1.10232.708-1.3091,2.75978a.373.373,0,0,1-.34415.35309h-.06893a.39312.39312,0,0,1-.34416-.42454,4.31836,4.31836,0,0,1,1.6528-3.32492c.20677-.07053.41354-.07053.482.14152a.303.303,0,0,1-.06847.49507Zm23.97,3.74992c-.96448-.283-.89555.42455-1.17125.354-.75724-.42455-.13785-3.04235-.13785-3.04235-.13784-.07052-.41308.354-.482.70758-.06892.42408-.13738.70712-.41308.63659-.68878-.283-.34462-3.32538-.34462-3.32538a1.83963,1.83963,0,0,0-.482,1.34416c0,.56653-.2757.70758-.2757.70758a30.125,30.125,0,0,0-2.9619-2.61734c-3.99483-3.60794-3.306-4.528-3.306-4.528,1.17125-.5656,1.58433-2.61734,1.37756-2.1928-.20631.42455-1.17079,1.41469-1.58387.84863-.41355-.5656.68878-1.20264,1.30817-2.12226.68879-.91962.68879-1.98075.5514-1.69772-.06893.283-1.24018,1.76871-1.85957,1.76871-.68879,0,.06846-1.69773-.06939-1.6272s-1.92849,1.6272-1.92849,3.1834a1.871,1.871,0,0,0,1.17124,1.91023c.27524,2.47628,2.27266,3.74992,3.44391,5.23513,1.17079,1.48568,4.8904,3.4669,4.8904,6.72082a4.04966,4.04966,0,0,1-3.03083,3.962,2.50567,2.50567,0,0,1,.55094-2.75886,1.1801,1.1801,0,0,0-1.37756.42455c-.06847.14105-.20632.35355-.482,0a2.46012,2.46012,0,0,0-2.68665-.99061c3.58175,1.69772,2.75558,3.46643,2.75558,3.46643a4.32563,4.32563,0,0,1-4.13315-4.31552c0-2.90083,3.58176-5.30567,3.58176-5.30567l-.82617-.92007s-3.9953,2.33477-3.9953,6.22574c0,5.37666,5.235,5.37666,5.235,5.51817a2.33786,2.33786,0,0,1-2.47989,1.76871c-1.6528,0-3.44391-1.34416-3.92591-1.62673a12.80524,12.80524,0,0,1-2.13527-1.20311,14.41018,14.41018,0,0,1-1.58388-2.82985c-.61985-1.20265-.27569-1.98075-.06892-1.62719.20631.354,1.3771,1.27364,1.17079.84909-1.03294-2.12227-.2757-4.81059-.13785-4.52756.41355.84909,1.72218,1.41469,1.37756.99014a4.43355,4.43355,0,0,1,0-4.03249c.13785-.14105.34416.283.68879.70758.34416.42408.7577.49553.55139.283-.55139-.99061-.48247-4.31552-.2757-4.174a3.32907,3.32907,0,0,0,1.72173.91962,6.63977,6.63977,0,0,1-1.58388-4.66908c0-1.48568-1.37756-3.18386-1.37756-3.32537a2.83547,2.83547,0,0,0,.27523-.91962.85709.85709,0,0,0-.964-.84909,1.1121,1.1121,0,0,0-1.10233.77856s-.6194-.63705-2.68574-.63705c-2.13527,0-3.23759.42455-3.23759.77857,0,.35355-.68833.283-.68833.283-.82663,0-.82663,1.13166-.41354,1.13166.41354,0,.2757-.56606.61985-.56606.06893,0,.27524,0,.27524.28349,0,.77764-.964.49507-1.03294.77764a1.71063,1.71063,0,0,0,.7577,1.62719,1.66979,1.66979,0,0,1,1.51542-1.20264,1.40092,1.40092,0,0,1,1.37756,1.13212,11.14466,11.14466,0,0,1-3.78853.63658c-3.99484,0-2.27311-3.60794-2.27311-3.60794-2.2042,1.34416-1.72173,4.457,1.37756,4.457s4.75254-1.20311,4.95932-.8491c.20677.5656-.68879,1.6272-1.58434,1.6272a2.04854,2.04854,0,0,1-1.446-.637,1.43771,1.43771,0,0,0,1.37757,1.91068,3.76771,3.76771,0,0,0,2.20419-1.20311c.41308.42455-.62032,2.26425-3.23759,2.54682a5.03494,5.03494,0,0,1-3.85746-.91962.75378.75378,0,0,0,0,.84909c.20678.283-.06846.283-.06846.283l-3.78853-4.03249c-.7577-1.34416.27524-1.76871.68878-2.4053a1.632,1.632,0,0,0,.06893-1.41515c0,.283-.34462.63705-.55093.42455a.64566.64566,0,0,0-.68879-.14152c-.13784.07053-.55093.14152-.41354,1.13212.13785.91962-.06892.99015-.27524.99015-.20677,0-.34462-.14152-.34462-.70758,0-.7781-.20677-2.40483-.34416-1.83923-.20723.49507-1.10233.07052-1.24017.212a1.22382,1.22382,0,0,0,.27569,1.69818c.68878.56606.61986.99061.41309,1.13212-.20677.14106-.34462,0-.82617-.56606-.48247-.63705-1.30864-1.20265-1.24018-1.06159a.858.858,0,0,1-.06892.708c-.13785.14106-.68878.07053-.68878.77765,0,.70757.89555,1.20264,1.58433,1.13212a1.04694,1.04694,0,0,1,1.17079.84909c.06893.42454-.34416.91962-.68878.7781-.34416-.14151-1.1014-.42455-1.1014.56606,0,.91962.964.84909.964,1.06113,0,.21251.13785.70758.20632.49508.34462-.84863.896-1.91023,1.17125-1.62674a22.806,22.806,0,0,0,1.7911,2.12181c.482.354.482.70758.27524.70758-1.17079,0-1.86.9906-1.6528.9906a4.4236,4.4236,0,0,1,1.72173-.283c.964,0,1.30863.70758,1.44648.56606a3.62808,3.62808,0,0,1,2.47989-1.76871c.82663,0,.89509.283.89509.42455s-.13784.354-.482.354c-2.06635,0-4.27054,4.03249-3.30607,3.25392.964-.7781,1.72173-.70757,1.9285-.283.20631.42455-.55093.637-.55093.637s-4.27054,1.55621-5.0287,1.90976c-.82617.354-1.03294.283-1.03294.283-1.1708-.283-.68879-1.48568-.8951-1.98076-.34462-.84909-1.17125-1.48567-1.0334-1.20311.13785.2835.06938.70758-.06846.70758a.5831.5831,0,0,0-.62032.56606.97216.97216,0,0,0,.62032,1.0616c.482.28257.27523.63658.20631.70711a.45417.45417,0,0,1-.68878-.07053c-.2757-.354-1.79111-1.69818-1.65326-1.34416a.8068.8068,0,0,1-.06847.56606s-.68878.14152-.68878.70711c0,1.0616,1.10187,1.0616,1.58388,1.13213.48247,0,.89555-.14152.89555.212,0,.84909-1.79065.49507-2.13527.49507-.34416,0-.482.142-.41354.142a.45489.45489,0,0,1,.34462.42408c0,.21251-.13739.354-.13739.56652a.86953.86953,0,0,0,.964.84864c.89555,0,1.17079-1.20265,1.79111-1.20265a.84343.84343,0,0,1,.89509.91961c0,.56606-.55093.14152-.55093,1.13166,0,.99107,1.30863.354,1.30863.49554s.13785.70711.20678.49553a6.10184,6.10184,0,0,0,0-1.62765c0-.70758,0-.99015.41308-1.06068,2.54881-.63705,3.92592-.84909,3.78853-.56652a2.98941,2.98941,0,0,0,0,2.05174,3.97737,3.97737,0,0,1,.964-2.19325c.48247-.63659,1.37756-.283,1.23971-.5656-.13739-.283-.06846-1.0616.62032-1.0616.75724,0,.13739,2.47629.41308,2.33523a4.66121,4.66121,0,0,0,1.30864-1.34462c.41309-.63659.75771-1.55621,1.30864-1.06113.55139.49507-1.37756,2.26378-1.17079,2.54681a19.41373,19.41373,0,0,0,2.54835,2.4053c1.24018.84908,3.9953,2.47628,3.9953,3.891,0,1.41515-.48247,1.62719-.48247,3.25439,0,3.67847,1.10187,3.25393,1.10187,4.103a5.576,5.576,0,0,1-.75725,2.12272c.96448-.42454,1.51542-1.48567,1.6528-1.34416.13739.141,0,.63659,0,1.20265a6.72817,6.72817,0,0,0,.61986,2.54727c-.06892-2.97182.482-3.67939.82663-3.53742.34416.14106.13785.5656.2757.70712.68878.283.75724.2125.75724,2.68833,0,2.47628-.61985,3.74992-1.446,3.74992-.82664,0-1.65326-1.55667-2.2042-1.76871a2.00963,2.00963,0,0,0-1.10232-.071s.27569.14152.27569.35356c0,.283-.34462.354-.34462.70758,0,.63658.82663.70757,1.10187.63658.2757-.07053.82663-.14151.896.49554.06847.63658-2.75558.283-2.75558.283.20677.283.61986.283.482.49507-.34416.63705-.06847,1.48568.55139,1.41515a3.788,3.788,0,0,0,1.515-.84909c.13785-.14151.48247-.283.68878.212.20723.49508-1.79065,1.69818-1.79065,1.69818.41309.212.68879-.071.68879.14106a.83917.83917,0,0,0,.89555.92008c.68878,0,.89509-.8491,1.03294-1.55621a1.0748,1.0748,0,0,1,.82663-.92008.37871.37871,0,0,1,.55093.354c0,.42408.20678,1.20219.96448,1.20219s.75771-.77764.82663-.91962c.06893-.141.55093-.07053.55093-.07053a4.62236,4.62236,0,0,0-1.23971-.70711c-.13785-.071-.68878-.142-.2757-.49553,1.65326-1.8397,2.893-6.72083,2.6862-6.72083-.82662,0-.89509-.92007-.27569-.92007,2.13573.07145,2.68666-.99015,2.68666-.99015a4.01473,4.01473,0,0,1-1.86.07053c-3.99484-1.13166-3.92592-5.94226-3.65022-6.43733a4.59166,4.59166,0,0,0,.55093-2.0522c-.13785-.5656.13785-.49507.13785-.49507,4.75209,2.6178,6.81889,8.702,6.81889,8.702.13739-3.67847-2.9619-6.93332-2.9619-6.93332,3.71961.354,4.13269-2.82984,4.13269-2.82984,3.23713-.49508,4.47731-3.96151,4.33946-5.37666a2.15006,2.15006,0,0,1,1.03294-2.05174Z"/>
        <path class="a" d="M97.73289,230.9546a.455.455,0,1,1-.4649.45511.449.449,0,0,1,.4649-.45511Zm-3.65263,0a.44924.44924,0,0,1,.46491.45511.43917.43917,0,0,1-.266.38973l.4649,1.75462h6.04421l.53106-1.81958a.33255.33255,0,0,1-.26553-.32519.44914.44914,0,0,1,.4649-.45469l.19938-.71492s-2.059.39015-2.059,1.23456c0,.45511.59767.52006.59767.52006s.33213.77988-.46491.77988h-.73043a1.05157,1.05157,0,0,1-.86366-.71492s.86366-.065.86366-.71451c0-.58543-1.39472-1.49522-1.39472-1.49522s-1.32855.90979-1.32855,1.69009c0,.38973.797.52006.797.52006s.06661.77946-.53106.77946h-.79749a.73129.73129,0,0,1-.73-.77946s.66383-.06538.66383-.65c0-.58543-1.39472-1.17-1.92623-1.235l.26553.77987h.00045Z"/>
      </g>
    </g>
  </g>
  <rect class="t" x="29.19804" y="-1.34616" width="72.07407" height="36.70667"/>
  <g>
    <path class="j" d="M84.96,12.48318h-4.6108v6.53971a13.85036,13.85036,0,0,1,2.34347-1.37054v-2.8257H84.96v.00846a3.30793,3.30793,0,1,1,0,6.61585H82.69264v-2.0389a.04666.04666,0,0,0-.07614-.0423,10.75747,10.75747,0,0,0-2.25887,2.115v2.30963h4.6108A5.65563,5.65563,0,1,0,84.96,12.48318Z"/>
    <polygon class="u" points="82.684 17.652 80.349 19.023 80.349 12.483 82.684 14.827 82.684 17.652"/>
    <rect class="v" x="75.83144" y="15.96877" width="2.24195" height="7.8172"/>
    <path class="w" d="M87.295,16.60328a.25152.25152,0,0,0-.06768-.1692c-.05076-.05076-.11845-.07614-.27919-.06768A14.33327,14.33327,0,0,0,75.83144,23.786h2.242a14.4697,14.4697,0,0,1,9.03547-6.97118C87.25267,16.764,87.295,16.67943,87.295,16.60328Z"/>
    <g>
      <path class="j" d="M41.9992,15.94339v.98138a2.24717,2.24717,0,0,1,2.14889-1.25211,2.18424,2.18424,0,0,1,2.14042,1.30287,2.82506,2.82506,0,0,1,4.27239-.57529,2.88349,2.88349,0,0,1,.62605,2.25887v5.13532H49.02961V19.06519c0-1.066-.38917-1.57359-1.20135-1.57359-.79525,0-1.2521.57529-1.2521,1.57359v4.72924H44.42727V19.13288c0-1.08291-.40609-1.64128-1.18442-1.64128-.81218,0-1.23519.57529-1.23519,1.64128v4.66155H39.85032v-7.851Z"/>
      <path class="j" d="M60.96691,19.945a4.15927,4.15927,0,0,1-4.2893,4.12011,4.06574,4.06574,0,0,1-4.25547-4.18779,4.06,4.06,0,0,1,4.28931-4.20471A4.11963,4.11963,0,0,1,60.96691,19.945Zm-6.37051-.06768a2.10391,2.10391,0,1,0,4.19625.03384,2.06176,2.06176,0,0,0-2.0812-2.30962A2.08862,2.08862,0,0,0,54.5964,19.87737Z"/>
      <path class="j" d="M64.53711,23.42218a3.4741,3.4741,0,0,1-.7445,2.51268,3.25206,3.25206,0,0,1-2.39423.846c-.11844,0-.33841,0-.57529-.01692V24.80119h.32149c.72757,0,1.15058-.50761,1.15058-1.37054V15.94339h2.24195Z"/>
      <path class="j" d="M72.17665,21.1464l-.04231-.00846a2.09111,2.09111,0,0,1-3.85784-.7445h6.13363c.01692-.15228.01692-.37224.01692-.423a4.07744,4.07744,0,0,0-4.23855-4.2893,3.99313,3.99313,0,0,0-4.15394,4.18778A4.25642,4.25642,0,0,0,73.82638,22.187Zm-1.97123-3.6548a1.90991,1.90991,0,0,1,1.9966,1.6582H68.268A1.854,1.854,0,0,1,70.20542,17.4916Z"/>
    </g>
    <path class="n" d="M76.95664,12.34782A1.34517,1.34517,0,1,1,75.61148,13.693,1.34315,1.34315,0,0,1,76.95664,12.34782Z"/>
    <path class="j" d="M63.4119,12.34782A1.34517,1.34517,0,1,1,62.06674,13.693,1.34315,1.34315,0,0,1,63.4119,12.34782Z"/>
  </g>
  <g>
    <path class="j" d="M30.04413,68.51465V66.75049L35.84,57.84082H30.09881V55.91455h8.40528v1.76416l-5.832,8.91016h5.86816v1.92578Z"/>
    <path class="j" d="M40.55585,68.51465V59.58643h2.30371v8.92822Zm.55761-9.648V57.24658l4.06836-2.1958v1.87207Z"/>
    <path class="j" d="M48.90839,68.73047a5.25013,5.25013,0,0,1-2.0879-.38672,3.60069,3.60069,0,0,1-1.44043-1.07129,3.09672,3.09672,0,0,1-.64843-1.584h2.32226a1.49317,1.49317,0,0,0,.585.89111,1.95924,1.95924,0,0,0,1.2334.36914,1.65663,1.65663,0,0,0,1.10645-.30615.911.911,0,0,0,.35156-.70215.773.773,0,0,0-.50391-.78272,8.962,8.962,0,0,0-1.40429-.40527q-.57569-.12524-1.16992-.30566a5.39181,5.39181,0,0,1-1.08887-.459,2.36679,2.36679,0,0,1-.80078-.72021,1.8557,1.8557,0,0,1-.30664-1.08887,2.53171,2.53171,0,0,1,.94531-1.998,3.95556,3.95556,0,0,1,2.65527-.81005,3.99652,3.99652,0,0,1,2.52832.73828,2.99212,2.99212,0,0,1,1.125,2.03369H50.132q-.19776-.98951-1.49414-.98975a1.69662,1.69662,0,0,0-.999.252.75246.75246,0,0,0-.35058.62988q0,.39624.52148.62988a7.65482,7.65482,0,0,0,1.38672.43213q.93458.21606,1.71875.477a2.895,2.895,0,0,1,1.251.77393,2.10317,2.10317,0,0,1,.46777,1.46679,2.50939,2.50939,0,0,1-.43164,1.49414,2.98881,2.98881,0,0,1-1.2959,1.044A4.86948,4.86948,0,0,1,48.90839,68.73047Z"/>
    <path class="j" d="M54.66815,68.51465v-12.96h2.30371v7.6499l3.168-3.61816h2.73633l-3.6543,4.06836,4.248,4.85986H60.59l-3.61817-4.48194v4.48194Z"/>
    <path class="j" d="M68.49237,68.73047a4.87389,4.87389,0,0,1-2.39356-.57568,4.17219,4.17219,0,0,1-1.63867-1.62012,4.79673,4.79673,0,0,1-.59375-2.41211,5.09755,5.09755,0,0,1,.585-2.46582,4.24341,4.24341,0,0,1,1.62012-1.68311,4.76221,4.76221,0,0,1,2.43945-.603,4.594,4.594,0,0,1,2.32129.57617,4.13857,4.13857,0,0,1,1.5752,1.5747,4.42586,4.42586,0,0,1,.56738,2.22315c0,.13232-.00293.27-.00879.41406-.00683.144-.01562.29395-.02734.4502H66.15253a2.32257,2.32257,0,0,0,.72949,1.63769,2.28967,2.28967,0,0,0,1.59277.59424,2.09456,2.09456,0,0,0,1.17871-.31494,1.95548,1.95548,0,0,0,.71094-.81934h2.33984a4.24292,4.24292,0,0,1-.83691,1.53907,4.12417,4.12417,0,0,1-1.43945,1.08886A4.55448,4.55448,0,0,1,68.49237,68.73047Zm.01855-7.48779a2.45316,2.45316,0,0,0-1.49414.477,2.208,2.208,0,0,0-.82812,1.44873H70.635a1.943,1.943,0,0,0-.64844-1.40381A2.15286,2.15286,0,0,0,68.51092,61.24268Z"/>
    <path class="j" d="M73.22577,72.47461V70.5127h.70215a1.2337,1.2337,0,0,0,.84668-.23389,1.04583,1.04583,0,0,0,.25195-.792V59.58643h2.30371v9.90039a2.85245,2.85245,0,0,1-.81934,2.30371,3.3598,3.3598,0,0,1-2.22265.68408Zm2.9707-14.27393a1.45491,1.45491,0,0,1-1.03516-.37793,1.24738,1.24738,0,0,1-.40527-.9541,1.21977,1.21977,0,0,1,.40527-.94482,1.636,1.636,0,0,1,2.07032,0,1.22222,1.22222,0,0,1,.40429.94482,1.24992,1.24992,0,0,1-.40429.9541A1.45816,1.45816,0,0,1,76.19647,58.20068Z"/>
    <path class="j" d="M83.71991,68.51465a3.4694,3.4694,0,0,1-2.25-.68408,2.973,2.973,0,0,1-.84668-2.42969V61.5127h-1.5293V59.58643h1.5293l.27051-2.39356h2.03418v2.39356h2.41113V61.5127H82.92792v3.90576a1.1487,1.1487,0,0,0,.27832.89111,1.476,1.476,0,0,0,.96289.24316h1.11621v1.96192Z"/>
    <path class="j" d="M91.424,68.73047a4.87382,4.87382,0,0,1-2.39355-.57568,4.17215,4.17215,0,0,1-1.63868-1.62012,4.79673,4.79673,0,0,1-.59375-2.41211,5.09755,5.09755,0,0,1,.585-2.46582,4.24341,4.24341,0,0,1,1.62012-1.68311,4.76221,4.76221,0,0,1,2.43945-.603,4.594,4.594,0,0,1,2.32129.57617,4.13857,4.13857,0,0,1,1.5752,1.5747,4.42586,4.42586,0,0,1,.56738,2.22315c0,.13232-.00293.27-.00879.41406-.00683.144-.01562.29395-.02734.4502H89.08417a2.32257,2.32257,0,0,0,.72949,1.63769,2.28967,2.28967,0,0,0,1.59277.59424,2.09453,2.09453,0,0,0,1.17871-.31494,1.95548,1.95548,0,0,0,.71094-.81934h2.33984a4.24277,4.24277,0,0,1-.83691,1.53907,4.12417,4.12417,0,0,1-1.43945,1.08886A4.55448,4.55448,0,0,1,91.424,68.73047Zm.01855-7.48779a2.45316,2.45316,0,0,0-1.49414.477,2.208,2.208,0,0,0-.82812,1.44873h4.44629a1.94293,1.94293,0,0,0-.64844-1.40381A2.15284,2.15284,0,0,0,91.44256,61.24268Z"/>
    <path class="j" d="M102.134,72.47461V59.58643h2.05176l.25195,1.27832a4.093,4.093,0,0,1,1.14356-1.044,3.4021,3.4021,0,0,1,1.84472-.45019,4.19422,4.19422,0,0,1,2.25.61181,4.39254,4.39254,0,0,1,1.56641,1.67432,4.97842,4.97842,0,0,1,.57519,2.41211,4.92711,4.92711,0,0,1-.57519,2.40283,4.33666,4.33666,0,0,1-1.56641,1.65576,4.23609,4.23609,0,0,1-2.25.603,3.89648,3.89648,0,0,1-1.76367-.37793,3.18085,3.18085,0,0,1-1.22461-1.062v5.18408Zm4.80567-5.75977a2.43329,2.43329,0,0,0,1.81835-.73828,2.61817,2.61817,0,0,0,.71973-1.90771,2.68169,2.68169,0,0,0-.71973-1.92627,2.58518,2.58518,0,0,0-3.64453-.00879,2.94,2.94,0,0,0,0,3.834A2.40781,2.40781,0,0,0,106.93964,66.71484Z"/>
    <path class="j" d="M113.86932,68.51465V59.58643h2.05176l.2168,1.67431a3.62678,3.62678,0,0,1,3.29394-1.89013v2.43017h-.64843a3.66164,3.66164,0,0,0-1.34961.23389,1.823,1.823,0,0,0-.92774.81006,3.2216,3.2216,0,0,0-.333,1.60205v4.06787Zm3.13184-9.75586-2.62793-1.43994V55.6626l2.62793,1.53027,2.62793-1.53027v1.65625Z"/>
    <path class="j" d="M120.99725,68.51465V59.58643H123.301v8.92822Zm.55762-9.648V57.24658l4.06836-2.1958v1.87207Z"/>
    <path class="j" d="M129.34979,68.73047a5.25011,5.25011,0,0,1-2.08789-.38672,3.60056,3.60056,0,0,1-1.44043-1.07129,3.09682,3.09682,0,0,1-.64844-1.584h2.32227a1.49312,1.49312,0,0,0,.585.89111,1.95922,1.95922,0,0,0,1.2334.36914,1.6566,1.6566,0,0,0,1.10644-.30615.911.911,0,0,0,.35157-.70215.773.773,0,0,0-.50391-.78272,8.96245,8.96245,0,0,0-1.4043-.40527q-.57568-.12524-1.16992-.30566a5.39206,5.39206,0,0,1-1.08887-.459,2.367,2.367,0,0,1-.80078-.72021,1.8557,1.8557,0,0,1-.30664-1.08887,2.53171,2.53171,0,0,1,.94531-1.998,3.95559,3.95559,0,0,1,2.65528-.81005,3.99654,3.99654,0,0,1,2.52832.73828,2.9922,2.9922,0,0,1,1.125,2.03369h-2.17774q-.19774-.98951-1.49414-.98975a1.69659,1.69659,0,0,0-.999.252.75244.75244,0,0,0-.35059.62988q0,.39624.52149.62988a7.65456,7.65456,0,0,0,1.38672.43213q.93456.21606,1.71875.477a2.895,2.895,0,0,1,1.251.77393,2.10313,2.10313,0,0,1,.46778,1.46679,2.50946,2.50946,0,0,1-.43164,1.49414,2.98887,2.98887,0,0,1-1.2959,1.044A4.86949,4.86949,0,0,1,129.34979,68.73047Z"/>
    <path class="j" d="M138.8,68.51465a3.46936,3.46936,0,0,1-2.25-.68408,2.973,2.973,0,0,1-.84668-2.42969V61.5127H134.174V59.58643h1.5293l.2705-2.39356H138.008v2.39356h2.41114V61.5127H138.008v3.90576a1.14874,1.14874,0,0,0,.27832.89111,1.4761,1.4761,0,0,0,.9629.24316h1.11621v1.96192Z"/>
    <path class="j" d="M145.74628,68.73047a3.24181,3.24181,0,0,1-2.583-1.04395,4.537,4.537,0,0,1-.90821-3.06006v-5.04h2.28516v4.82421a2.85753,2.85753,0,0,0,.46875,1.76416,1.73908,1.73908,0,0,0,1.47559.61182,2.0353,2.0353,0,0,0,1.57519-.68408,2.73428,2.73428,0,0,0,.6211-1.90772V59.58643h2.30371v8.92822h-2.03418l-.17969-1.51221a3.13778,3.13778,0,0,1-1.19727,1.26026A3.49123,3.49123,0,0,1,145.74628,68.73047Z"/>
    <path class="j" d="M153.343,72.47461V59.58643h2.05175l.252,1.27832a4.09278,4.09278,0,0,1,1.14355-1.044,3.40213,3.40213,0,0,1,1.84473-.45019,4.19427,4.19427,0,0,1,2.25.61181,4.39251,4.39251,0,0,1,1.5664,1.67432,4.97842,4.97842,0,0,1,.5752,2.41211,4.92712,4.92712,0,0,1-.5752,2.40283,4.33664,4.33664,0,0,1-1.5664,1.65576,4.23614,4.23614,0,0,1-2.25.603,3.89642,3.89642,0,0,1-1.76367-.37793,3.18077,3.18077,0,0,1-1.22461-1.062v5.18408Zm4.80566-5.75977a2.43333,2.43333,0,0,0,1.81836-.73828,2.61821,2.61821,0,0,0,.71973-1.90771,2.68174,2.68174,0,0,0-.71973-1.92627,2.58518,2.58518,0,0,0-3.64453-.00879,2.94,2.94,0,0,0,0,3.834A2.40779,2.40779,0,0,0,158.14862,66.71484Z"/>
    <path class="j" d="M169.36249,68.51465v-12.96h2.30371v7.6499l3.168-3.61816h2.73632l-3.65429,4.06836,4.248,4.85986h-2.87988l-3.61816-4.48194v4.48194Z"/>
    <path class="j" d="M183.18671,68.73047a4.87383,4.87383,0,0,1-2.39356-.57568,4.17206,4.17206,0,0,1-1.63867-1.62012,4.79663,4.79663,0,0,1-.59375-2.41211,5.09744,5.09744,0,0,1,.585-2.46582,4.24341,4.24341,0,0,1,1.62012-1.68311,4.76221,4.76221,0,0,1,2.43945-.603,4.594,4.594,0,0,1,2.32129.57617,4.13862,4.13862,0,0,1,1.57519,1.5747,4.42587,4.42587,0,0,1,.56739,2.22315c0,.13232-.00293.27-.00879.41406-.00684.144-.01563.29395-.02735.4502h-6.78613a2.32261,2.32261,0,0,0,.72949,1.63769,2.28968,2.28968,0,0,0,1.59278.59424,2.09456,2.09456,0,0,0,1.17871-.31494,1.95555,1.95555,0,0,0,.71094-.81934h2.33984a4.24307,4.24307,0,0,1-.83691,1.53907,4.12412,4.12412,0,0,1-1.43946,1.08886A4.55443,4.55443,0,0,1,183.18671,68.73047Zm.01855-7.48779a2.45316,2.45316,0,0,0-1.49414.477,2.208,2.208,0,0,0-.82813,1.44873h4.44629a1.943,1.943,0,0,0-.64843-1.40381A2.15286,2.15286,0,0,0,183.20526,61.24268Z"/>
    <path class="j" d="M197.5871,68.73047a5.25,5.25,0,0,1-2.08789-.38672,3.60056,3.60056,0,0,1-1.44043-1.07129,3.09665,3.09665,0,0,1-.64844-1.584h2.32226a1.49321,1.49321,0,0,0,.585.89111,1.95924,1.95924,0,0,0,1.2334.36914,1.65663,1.65663,0,0,0,1.10645-.30615.911.911,0,0,0,.35156-.70215.773.773,0,0,0-.50391-.78272,8.962,8.962,0,0,0-1.40429-.40527q-.57569-.12524-1.16992-.30566a5.39181,5.39181,0,0,1-1.08887-.459,2.36679,2.36679,0,0,1-.80078-.72021,1.8557,1.8557,0,0,1-.30664-1.08887,2.53171,2.53171,0,0,1,.94531-1.998,3.95556,3.95556,0,0,1,2.65527-.81005,3.99652,3.99652,0,0,1,2.52832.73828,2.99212,2.99212,0,0,1,1.125,2.03369h-2.17773q-.19776-.98951-1.49414-.98975a1.69662,1.69662,0,0,0-.999.252.75246.75246,0,0,0-.35058.62988q0,.39624.52148.62988a7.65482,7.65482,0,0,0,1.38672.43213q.93457.21606,1.71875.477a2.895,2.895,0,0,1,1.251.77393,2.10317,2.10317,0,0,1,.46777,1.46679,2.50939,2.50939,0,0,1-.43164,1.49414,2.98881,2.98881,0,0,1-1.2959,1.044A4.86948,4.86948,0,0,1,197.5871,68.73047Z"/>
    <path class="j" d="M203.34589,68.51465v-12.96h2.30371v12.96Z"/>
    <path class="j" d="M211.35565,68.73047a3.24183,3.24183,0,0,1-2.583-1.04395,4.537,4.537,0,0,1-.9082-3.06006v-5.04h2.28516v4.82421a2.85753,2.85753,0,0,0,.46875,1.76416,1.73908,1.73908,0,0,0,1.47558.61182,2.03534,2.03534,0,0,0,1.5752-.68408,2.73427,2.73427,0,0,0,.62109-1.90772V59.58643h2.30371v8.92822h-2.03418l-.17969-1.51221a3.13776,3.13776,0,0,1-1.19726,1.26026A3.49127,3.49127,0,0,1,211.35565,68.73047Z"/>
    <path class="j" d="M218.37518,68.51465v-1.854l4.55469-5.166h-4.5v-1.9082h7.12793v1.854l-4.626,5.166h4.71582v1.9082Zm3.69043-9.75586-2.62793-1.43994V55.6626l2.62793,1.53027,2.62793-1.53027v1.65625Z"/>
    <path class="j" d="M232.86542,68.73047a3.89649,3.89649,0,0,1-1.76368-.37793,3.18082,3.18082,0,0,1-1.2246-1.062l-.252,1.22412h-2.05176v-12.96h2.30372v5.31006a4.09278,4.09278,0,0,1,1.14355-1.044,3.40213,3.40213,0,0,1,1.84473-.45019,4.19427,4.19427,0,0,1,2.25.61181,4.39251,4.39251,0,0,1,1.5664,1.67432,4.97842,4.97842,0,0,1,.5752,2.41211,4.92712,4.92712,0,0,1-.5752,2.40283,4.33664,4.33664,0,0,1-1.5664,1.65576A4.23614,4.23614,0,0,1,232.86542,68.73047Zm-.48633-2.01563a2.43333,2.43333,0,0,0,1.81836-.73828,2.6182,2.6182,0,0,0,.71972-1.90771,2.68173,2.68173,0,0,0-.71972-1.92627,2.58518,2.58518,0,0,0-3.64453-.00879,2.94,2.94,0,0,0,0,3.834A2.40779,2.40779,0,0,0,232.37909,66.71484Z"/>
    <path class="j" d="M242.38788,68.73047a4.22394,4.22394,0,0,1-1.88965-.36865,2.55763,2.55763,0,0,1-1.09863-.981,2.61131,2.61131,0,0,1-.35938-1.3501,2.45513,2.45513,0,0,1,.97168-2.01611,4.62381,4.62381,0,0,1,2.916-.77393h2.26757v-.21631a1.65315,1.65315,0,0,0-.52148-1.34961,1.9661,1.9661,0,0,0-1.2959-.43212,2.227,2.227,0,0,0-1.22461.333,1.4342,1.4342,0,0,0-.64746.981h-2.25a3.12963,3.12963,0,0,1,.65723-1.69189,3.67123,3.67123,0,0,1,1.46679-1.10694,5.04554,5.04554,0,0,1,2.01563-.3872,4.42969,4.42969,0,0,1,3.00586.9541,3.3841,3.3841,0,0,1,1.09863,2.6997v5.49024h-1.96191l-.2168-1.43994a3.3266,3.3266,0,0,1-1.10644,1.188A3.26529,3.26529,0,0,1,242.38788,68.73047Zm.52148-1.79981a1.90684,1.90684,0,0,0,1.53906-.648,3.14255,3.14255,0,0,0,.69336-1.602h-1.96191a2.04727,2.04727,0,0,0-1.31445.333,1.03132,1.03132,0,0,0-.39551.81885.94363.94363,0,0,0,.39551.81006A1.73441,1.73441,0,0,0,242.90936,66.93066Zm-.16113-8.064V57.24658l4.06738-2.1958v1.87207Z"/>
    <path class="j" d="M249.69549,68.51465V59.58643h2.03418l.19825,1.206a3.17272,3.17272,0,0,1,1.14257-1.03467,3.38852,3.38852,0,0,1,1.64747-.3872,3.05966,3.05966,0,0,1,2.93359,1.602,3.47255,3.47255,0,0,1,1.30469-1.16993,3.78,3.78,0,0,1,1.791-.43212,3.41714,3.41714,0,0,1,2.68262,1.04394,4.4518,4.4518,0,0,1,.93555,3.06006v5.04h-2.30371V63.69043a2.99156,2.99156,0,0,0-.44141-1.76367,1.56312,1.56312,0,0,0-1.3584-.61231,1.85594,1.85594,0,0,0-1.50293.68409,2.90878,2.90878,0,0,0-.56738,1.9082v4.60791h-2.30371V63.69043a2.94687,2.94687,0,0,0-.4502-1.76367,1.608,1.608,0,0,0-1.38574-.61231,1.83741,1.83741,0,0,0-1.48535.68409,2.90878,2.90878,0,0,0-.56738,1.9082v4.60791Z"/>
    <path class="j" d="M32.78046,90.11475l-3.27637-8.92823H31.9162l2.26855,6.75,2.26758-6.75h2.41211l-3.294,8.92823Z"/>
    <path class="j" d="M44.2287,90.33057a4.87376,4.87376,0,0,1-2.39356-.57569,4.1721,4.1721,0,0,1-1.63867-1.62011,4.79666,4.79666,0,0,1-.59375-2.41211,5.09744,5.09744,0,0,1,.585-2.46582,4.24334,4.24334,0,0,1,1.62012-1.68311,4.76221,4.76221,0,0,1,2.43945-.603,4.594,4.594,0,0,1,2.32129.57618,4.13857,4.13857,0,0,1,1.5752,1.5747,4.42586,4.42586,0,0,1,.56738,2.22315c0,.13232-.00293.27-.00879.41406-.00684.144-.01562.29394-.02734.45019H41.88885a2.32264,2.32264,0,0,0,.7295,1.6377,2.28967,2.28967,0,0,0,1.59277.59424,2.09456,2.09456,0,0,0,1.17871-.31494,1.95555,1.95555,0,0,0,.71094-.81934h2.33984a4.24288,4.24288,0,0,1-.83691,1.53906,4.124,4.124,0,0,1-1.43946,1.08887A4.55443,4.55443,0,0,1,44.2287,90.33057Zm.01855-7.4878a2.45316,2.45316,0,0,0-1.49414.47705,2.208,2.208,0,0,0-.82812,1.44873h4.44629a1.943,1.943,0,0,0-.64844-1.4038A2.15286,2.15286,0,0,0,44.24725,82.84277Z"/>
    <path class="j" d="M50.65448,90.11475V81.18652h2.05176l.21679,1.67432a3.62684,3.62684,0,0,1,3.294-1.89014v2.43018h-.64844a3.66151,3.66151,0,0,0-1.34961.23389,1.823,1.823,0,0,0-.92773.81005,3.22164,3.22164,0,0,0-.333,1.60206v4.06787Zm3.13183-9.75586L51.15839,78.919V77.2627L53.78631,78.793l2.62793-1.53027V78.919Z"/>
    <path class="j" d="M61.95819,90.33057a4.87372,4.87372,0,0,1-2.39355-.57569A4.17213,4.17213,0,0,1,57.926,88.13477a4.79676,4.79676,0,0,1-.59375-2.41211,5.09755,5.09755,0,0,1,.585-2.46582,4.24334,4.24334,0,0,1,1.62012-1.68311,4.76221,4.76221,0,0,1,2.43945-.603,4.594,4.594,0,0,1,2.32129.57618,4.13857,4.13857,0,0,1,1.5752,1.5747,4.42586,4.42586,0,0,1,.56738,2.22315c0,.13232-.00293.27-.00879.41406-.00683.144-.01562.29394-.02734.45019H59.61835a2.32259,2.32259,0,0,0,.72949,1.6377,2.28967,2.28967,0,0,0,1.59277.59424,2.09453,2.09453,0,0,0,1.17871-.31494,1.95548,1.95548,0,0,0,.71094-.81934H66.1701a4.24273,4.24273,0,0,1-.83691,1.53906,4.12408,4.12408,0,0,1-1.43945,1.08887A4.55448,4.55448,0,0,1,61.95819,90.33057Zm.01855-7.4878a2.45316,2.45316,0,0,0-1.49414.47705,2.208,2.208,0,0,0-.82812,1.44873h4.44629a1.943,1.943,0,0,0-.64844-1.4038A2.15285,2.15285,0,0,0,61.97674,82.84277Z"/>
    <path class="j" d="M66.69159,94.07471V92.11279h.70215a1.2337,1.2337,0,0,0,.84668-.23388,1.0458,1.0458,0,0,0,.25195-.792V81.18652h2.30371v9.90039a2.85243,2.85243,0,0,1-.81934,2.30371,3.35973,3.35973,0,0,1-2.22265.68409Zm2.9707-14.27393a1.45492,1.45492,0,0,1-1.03515-.37793,1.24735,1.24735,0,0,1-.40528-.9541,1.21975,1.21975,0,0,1,.40528-.94482,1.636,1.636,0,0,1,2.07031,0,1.22222,1.22222,0,0,1,.40429.94482,1.24992,1.24992,0,0,1-.40429.9541A1.45821,1.45821,0,0,1,69.66229,79.80078Z"/>
    <path class="j" d="M73.20819,90.11475V81.18652h2.03418l.17969,1.51221A3.13963,3.13963,0,0,1,76.61932,81.439a3.52625,3.52625,0,0,1,1.84473-.46826,3.2477,3.2477,0,0,1,2.57422,1.044,4.50409,4.50409,0,0,1,.918,3.06006v5.04H79.65253V85.29053a2.86344,2.86344,0,0,0-.46778-1.76367,1.72108,1.72108,0,0,0-1.458-.61231,2.05732,2.05732,0,0,0-1.59375.68408,2.73725,2.73725,0,0,0-.62109,1.90821v4.60791Z"/>
    <path class="j" d="M88.48944,90.33057a4.87372,4.87372,0,0,1-2.39355-.57569,4.17213,4.17213,0,0,1-1.63868-1.62011,4.79676,4.79676,0,0,1-.59375-2.41211,5.09755,5.09755,0,0,1,.585-2.46582,4.24334,4.24334,0,0,1,1.62012-1.68311,4.76221,4.76221,0,0,1,2.43945-.603,4.594,4.594,0,0,1,2.32129.57618,4.13857,4.13857,0,0,1,1.5752,1.5747,4.42586,4.42586,0,0,1,.56738,2.22315c0,.13232-.00293.27-.00879.41406-.00683.144-.01562.29394-.02734.45019H86.1496a2.32259,2.32259,0,0,0,.72949,1.6377,2.28967,2.28967,0,0,0,1.59277.59424,2.09453,2.09453,0,0,0,1.17871-.31494,1.95548,1.95548,0,0,0,.71094-.81934h2.33984a4.24273,4.24273,0,0,1-.83691,1.53906A4.12408,4.12408,0,0,1,90.425,89.93457,4.55448,4.55448,0,0,1,88.48944,90.33057Zm.01855-7.4878a2.45316,2.45316,0,0,0-1.49414.47705,2.208,2.208,0,0,0-.82812,1.44873H90.632a1.943,1.943,0,0,0-.64844-1.4038A2.15285,2.15285,0,0,0,88.508,82.84277Zm-.64843-2.376V78.84668l4.06836-2.1958V78.523Z"/>
    <path class="j" d="M102.88983,90.33057a5.25011,5.25011,0,0,1-2.08789-.38672,3.60056,3.60056,0,0,1-1.44043-1.07129,3.09682,3.09682,0,0,1-.64844-1.584h2.32227a1.49312,1.49312,0,0,0,.585.89112,1.95922,1.95922,0,0,0,1.2334.36914,1.65661,1.65661,0,0,0,1.10644-.30615.911.911,0,0,0,.35157-.70215.773.773,0,0,0-.50391-.78272,8.96136,8.96136,0,0,0-1.4043-.40527q-.57568-.12525-1.16992-.30566a5.39206,5.39206,0,0,1-1.08887-.459,2.367,2.367,0,0,1-.80078-.72021,1.8557,1.8557,0,0,1-.30664-1.08887,2.53171,2.53171,0,0,1,.94531-1.998,3.95559,3.95559,0,0,1,2.65528-.81006,3.99662,3.99662,0,0,1,2.52832.73828,2.99224,2.99224,0,0,1,1.125,2.0337h-2.17774q-.19775-.9895-1.49414-.98975a1.69657,1.69657,0,0,0-.999.25195.75247.75247,0,0,0-.35059.62989q0,.39624.52149.62988a7.65431,7.65431,0,0,0,1.38672.43213q.93456.21606,1.71875.477a2.89508,2.89508,0,0,1,1.251.77392,2.10317,2.10317,0,0,1,.46778,1.4668,2.50948,2.50948,0,0,1-.43164,1.49414,2.989,2.989,0,0,1-1.2959,1.04395A4.86952,4.86952,0,0,1,102.88983,90.33057Z"/>
    <path class="j" d="M108.6496,94.07471V81.18652h2.05175l.252,1.27832a4.09275,4.09275,0,0,1,1.14355-1.04394,3.402,3.402,0,0,1,1.84473-.4502,4.19418,4.19418,0,0,1,2.25.61182,4.39251,4.39251,0,0,1,1.5664,1.67432,4.97837,4.97837,0,0,1,.5752,2.41211,4.92712,4.92712,0,0,1-.5752,2.40283,4.33671,4.33671,0,0,1-1.5664,1.65576,4.23623,4.23623,0,0,1-2.25.603,3.89642,3.89642,0,0,1-1.76367-.37793,3.1808,3.1808,0,0,1-1.22461-1.062v5.18409Zm4.80566-5.75977a2.43333,2.43333,0,0,0,1.81836-.73828,2.61821,2.61821,0,0,0,.71973-1.90771,2.68174,2.68174,0,0,0-.71973-1.92627,2.58518,2.58518,0,0,0-3.64453-.00879,2.94,2.94,0,0,0,0,3.834A2.40779,2.40779,0,0,0,113.45526,88.31494Z"/>
    <path class="j" d="M120.385,90.11475V81.18652h2.05176l.21679,1.67432a3.62684,3.62684,0,0,1,3.294-1.89014v2.43018H125.299a3.66147,3.66147,0,0,0-1.34961.23389,1.823,1.823,0,0,0-.92773.81005,3.22164,3.22164,0,0,0-.333,1.60206v4.06787Z"/>
    <path class="j" d="M130.591,90.33057a4.22383,4.22383,0,0,1-1.88965-.36866,2.55766,2.55766,0,0,1-1.09863-.981,2.61142,2.61142,0,0,1-.35937-1.3501,2.45512,2.45512,0,0,1,.97168-2.01611,4.62377,4.62377,0,0,1,2.916-.77393h2.26758v-.21631a1.65318,1.65318,0,0,0-.52148-1.34961,1.96614,1.96614,0,0,0-1.2959-.43213,2.22687,2.22687,0,0,0-1.22461.333,1.43414,1.43414,0,0,0-.64746.981h-2.25a3.12973,3.12973,0,0,1,.65722-1.6919,3.67117,3.67117,0,0,1,1.4668-1.10693,5.04549,5.04549,0,0,1,2.01562-.38721,4.42971,4.42971,0,0,1,3.00586.9541,3.38411,3.38411,0,0,1,1.09864,2.69971v5.49024h-1.96192l-.21679-1.43995a3.32655,3.32655,0,0,1-1.10645,1.188A3.26529,3.26529,0,0,1,130.591,90.33057Zm.52149-1.79981a1.90685,1.90685,0,0,0,1.53906-.64795,3.14268,3.14268,0,0,0,.69336-1.60205H131.383a2.04731,2.04731,0,0,0-1.31445.333,1.03135,1.03135,0,0,0-.39551.81885.94365.94365,0,0,0,.39551.81006A1.73446,1.73446,0,0,0,131.11249,88.53076Zm-.16114-8.064V78.84668l4.06739-2.1958V78.523Z"/>
    <path class="j" d="M140.0412,90.11475l-3.27637-8.92823h2.41211l2.26855,6.75,2.26758-6.75h2.41211l-3.29394,8.92823Z"/>
    <path class="j" d="M148.6994,94.07471l2.07031-4.5542h-.54l-3.47461-8.334h2.502l2.50195,6.28223,2.61035-6.28223h2.44824l-5.66992,12.88819Z"/>
    <path class="j" d="M166.89667,90.33057a4.59615,4.59615,0,0,1-2.33106-.59375,4.35506,4.35506,0,0,1-1.63769-1.647,4.81871,4.81871,0,0,1-.60352-2.439,4.76282,4.76282,0,0,1,.61231-2.439,4.42316,4.42316,0,0,1,1.64648-1.647,4.83472,4.83472,0,0,1,4.64453,0,4.36563,4.36563,0,0,1,1.6377,1.647,5.23,5.23,0,0,1,0,4.87793,4.35025,4.35025,0,0,1-1.64649,1.647A4.615,4.615,0,0,1,166.89667,90.33057Zm0-1.998a2.12675,2.12675,0,0,0,1.56543-.67481,3.35726,3.35726,0,0,0,0-4.01416,2.14291,2.14291,0,0,0-3.12207,0,3.39327,3.39327,0,0,0,0,4.01416A2.09693,2.09693,0,0,0,166.89667,88.33252Z"/>
    <path class="j" d="M173.52069,90.11475V81.18652h2.03418l.17969,1.51221a3.13963,3.13963,0,0,1,1.19726-1.25977,3.52625,3.52625,0,0,1,1.84473-.46826,3.2477,3.2477,0,0,1,2.57422,1.044,4.50409,4.50409,0,0,1,.918,3.06006v5.04H179.965V85.29053a2.86344,2.86344,0,0,0-.46778-1.76367,1.72108,1.72108,0,0,0-1.458-.61231,2.05732,2.05732,0,0,0-1.59375.68408,2.73725,2.73725,0,0,0-.62109,1.90821v4.60791Z"/>
    <path class="j" d="M184.464,90.11475v-12.96h2.30371v12.96Z"/>
    <path class="j" d="M190.36835,79.80078a1.45819,1.45819,0,0,1-1.03516-.37793,1.25075,1.25075,0,0,1-.40527-.9541,1.223,1.223,0,0,1,.40527-.94482,1.636,1.636,0,0,1,2.07031,0,1.22222,1.22222,0,0,1,.4043.94482,1.24993,1.24993,0,0,1-.4043.9541A1.45818,1.45818,0,0,1,190.36835,79.80078Zm-1.15235,10.314V81.18652h2.30469v8.92823Z"/>
    <path class="j" d="M193.93182,90.11475V81.18652H195.966l.17969,1.51221A3.13965,3.13965,0,0,1,197.343,81.439a3.52619,3.52619,0,0,1,1.84472-.46826,3.24769,3.24769,0,0,1,2.57422,1.044,4.504,4.504,0,0,1,.918,3.06006v5.04h-2.30371V85.29053a2.86351,2.86351,0,0,0-.46777-1.76367,1.72108,1.72108,0,0,0-1.458-.61231,2.05729,2.05729,0,0,0-1.59375.68408,2.73721,2.73721,0,0,0-.6211,1.90821v4.60791Z"/>
    <path class="j" d="M209.214,90.33057a4.87378,4.87378,0,0,1-2.39356-.57569,4.17217,4.17217,0,0,1-1.63867-1.62011,4.79666,4.79666,0,0,1-.59375-2.41211,5.09755,5.09755,0,0,1,.585-2.46582,4.24334,4.24334,0,0,1,1.62012-1.68311,4.76221,4.76221,0,0,1,2.43945-.603,4.594,4.594,0,0,1,2.32129.57618,4.13857,4.13857,0,0,1,1.5752,1.5747,4.42586,4.42586,0,0,1,.56738,2.22315c0,.13232-.00293.27-.00879.41406-.00683.144-.01562.29394-.02734.45019h-6.78613a2.32259,2.32259,0,0,0,.72949,1.6377,2.28967,2.28967,0,0,0,1.59277.59424,2.09456,2.09456,0,0,0,1.17871-.31494,1.95555,1.95555,0,0,0,.71094-.81934H213.426a4.24288,4.24288,0,0,1-.83691,1.53906,4.12408,4.12408,0,0,1-1.43945,1.08887A4.55448,4.55448,0,0,1,209.214,90.33057Zm.01855-7.4878a2.45316,2.45316,0,0,0-1.49414.47705,2.208,2.208,0,0,0-.82812,1.44873h4.44629a1.943,1.943,0,0,0-.64844-1.4038A2.15286,2.15286,0,0,0,209.2326,82.84277Z"/>
    <path class="j" d="M216.63006,90.24072a1.41787,1.41787,0,0,1-1.03515-.396,1.28763,1.28763,0,0,1-.40527-.95411,1.30771,1.30771,0,0,1,.40527-.97167,1.551,1.551,0,0,1,2.07031,0,1.30685,1.30685,0,0,1,.4043.97167,1.28672,1.28672,0,0,1-.4043.95411A1.41945,1.41945,0,0,1,216.63006,90.24072Z"/>
  </g>
  <g>
    <path class="j" d="M34.54413,124.06543a5.41555,5.41555,0,0,1-2.41211-.50391,3.76745,3.76745,0,0,1-1.584-1.40381,3.87948,3.87948,0,0,1-.55761-2.08789h1.584a2.77472,2.77472,0,0,0,.3418,1.35889,2.52066,2.52066,0,0,0,.999.98975,3.28863,3.28863,0,0,0,1.62891.36914,2.91964,2.91964,0,0,0,1.98047-.61182,1.94743,1.94743,0,0,0,.70214-1.53027,2.06674,2.06674,0,0,0-.32421-1.21485,2.41736,2.41736,0,0,0-.873-.74707,7.278,7.278,0,0,0-1.25977-.5039q-.71192-.21607-1.48535-.48584a5.29765,5.29765,0,0,1-2.16015-1.25147,2.73518,2.73518,0,0,1-.70215-1.95263,3.21407,3.21407,0,0,1,.46875-1.791,3.28984,3.28984,0,0,1,1.377-1.22412,4.71788,4.71788,0,0,1,2.11426-.44092,4.60233,4.60233,0,0,1,2.09765.44971,3.40575,3.40575,0,0,1,1.38575,1.24219,3.44226,3.44226,0,0,1,.51269,1.7998h-1.584a2.20435,2.20435,0,0,0-.26953-1.03467,2.10227,2.10227,0,0,0-.81934-.83691,2.67089,2.67089,0,0,0-1.377-.32422,2.49206,2.49206,0,0,0-1.68262.522,1.82668,1.82668,0,0,0-.65723,1.49414,1.62329,1.62329,0,0,0,.459,1.2417,3.47473,3.47473,0,0,0,1.28711.71143q.82762.279,1.9082.63867a9.24284,9.24284,0,0,1,1.62012.75635,3.18636,3.18636,0,0,1,1.125,1.11572,3.39282,3.39282,0,0,1,.40429,1.74609,3.32386,3.32386,0,0,1-.46777,1.70118,3.482,3.482,0,0,1-1.41309,1.30468A4.9919,4.9919,0,0,1,34.54413,124.06543Z"/>
    <path class="j" d="M49.66424,124.06543a4.37164,4.37164,0,0,1-2.331-.61231,4.161,4.161,0,0,1-1.54785-1.67333,5.17379,5.17379,0,0,1-.54883-2.41211,5.05121,5.05121,0,0,1,.55762-2.40284,4.20359,4.20359,0,0,1,1.54785-1.65625,4.41317,4.41317,0,0,1,2.33984-.603,4.08061,4.08061,0,0,1,1.94434.45019,3.24228,3.24228,0,0,1,1.31445,1.25977v-5.52588h1.51172v12.96H53.08417l-.14356-1.47607a4.17409,4.17409,0,0,1-1.24219,1.16943A3.6816,3.6816,0,0,1,49.66424,124.06543Zm.16211-1.314a2.99368,2.99368,0,0,0,1.59278-.42285,2.88872,2.88872,0,0,0,1.08008-1.1792,4.21626,4.21626,0,0,0,0-3.52783,2.895,2.895,0,0,0-1.08008-1.1792,2.9981,2.9981,0,0,0-1.59278-.42285,2.96509,2.96509,0,0,0-1.57519.42285,2.89485,2.89485,0,0,0-1.08008,1.1792,4.21616,4.21616,0,0,0,0,3.52783,2.88858,2.88858,0,0,0,1.08008,1.1792A2.96067,2.96067,0,0,0,49.82635,122.75146Z"/>
    <path class="j" d="M59.88788,124.06543a4.04254,4.04254,0,0,1-1.85352-.37793,2.57113,2.57113,0,0,1-1.09863-1.00781,2.70737,2.70737,0,0,1-.35938-1.36817,2.42423,2.42423,0,0,1,1.044-2.106,4.84683,4.84683,0,0,1,2.84375-.7378h2.41211v-.10839a2.38228,2.38228,0,0,0-.61231-1.773,2.233,2.233,0,0,0-1.63769-.603,2.61317,2.61317,0,0,0-1.52149.4414,1.93323,1.93323,0,0,0-.80078,1.28663H56.756a2.86155,2.86155,0,0,1,.65723-1.6377,3.66863,3.66863,0,0,1,1.41308-1.01709,4.64661,4.64661,0,0,1,1.79981-.35107,3.38019,3.38019,0,0,1,3.76172,3.65381v5.49023H63.03827l-.08985-1.60205a3.55453,3.55453,0,0,1-1.10742,1.2876A3.2515,3.2515,0,0,1,59.88788,124.06543Zm.23437-1.27783a2.45849,2.45849,0,0,0,1.48438-.4502,2.86975,2.86975,0,0,0,.94531-1.16992,3.64434,3.64434,0,0,0,.32422-1.51172v-.01806H60.59a2.96314,2.96314,0,0,0-1.88086.459,1.43059,1.43059,0,0,0-.54883,1.14307,1.385,1.385,0,0,0,.51269,1.125A2.22053,2.22053,0,0,0,60.12225,122.7876Z"/>
    <path class="j" d="M69.93182,123.84961a2.891,2.891,0,0,1-1.92578-.59375,2.70088,2.70088,0,0,1-.70215-2.14209v-4.91406H65.756v-1.27832h1.54785l.19825-2.1416h1.31445v2.1416h2.62793v1.27832H68.81659v4.91406a1.48327,1.48327,0,0,0,.3418,1.14307,1.86461,1.86461,0,0,0,1.20605.29687H71.3v1.2959Z"/>
    <path class="j" d="M77.18573,124.06543a4.49914,4.49914,0,0,1-2.26758-.5752,4.167,4.167,0,0,1-1.59277-1.62939,5.01047,5.01047,0,0,1-.585-2.4751,4.95084,4.95084,0,0,1,.59375-2.4751,4.19789,4.19789,0,0,1,1.61132-1.6289,4.76947,4.76947,0,0,1,4.54493,0,4.15938,4.15938,0,0,1,1.59277,1.6289,5.02108,5.02108,0,0,1,.585,2.4751,4.9611,4.9611,0,0,1-.59375,2.4751,4.21889,4.21889,0,0,1-1.61133,1.62939A4.55132,4.55132,0,0,1,77.18573,124.06543Zm0-1.2959a2.87014,2.87014,0,0,0,1.44043-.37793,2.826,2.826,0,0,0,1.08008-1.13379,3.86414,3.86414,0,0,0,.41406-1.87207,3.92082,3.92082,0,0,0-.40527-1.87207,2.761,2.761,0,0,0-1.07129-1.13428,2.83382,2.83382,0,0,0-1.42188-.37793,2.86654,2.86654,0,0,0-1.43945.37793,2.81773,2.81773,0,0,0-1.08008,1.13428,4.43908,4.43908,0,0,0,0,3.74414,2.833,2.833,0,0,0,1.07129,1.13379A2.78263,2.78263,0,0,0,77.18573,122.76953Z"/>
    <path class="j" d="M85.89862,123.84961l-3.38477-8.92822h1.584l2.68262,7.47021,2.70019-7.47021H91.0285l-3.38476,8.92822Z"/>
    <path class="j" d="M96.31952,124.06543a4.49908,4.49908,0,0,1-2.26758-.5752,4.1669,4.1669,0,0,1-1.59277-1.62939,5.01047,5.01047,0,0,1-.585-2.4751,4.95084,4.95084,0,0,1,.59375-2.4751,4.19789,4.19789,0,0,1,1.61132-1.6289,4.76947,4.76947,0,0,1,4.54493,0,4.15938,4.15938,0,0,1,1.59277,1.6289,5.02108,5.02108,0,0,1,.585,2.4751,4.9611,4.9611,0,0,1-.59375,2.4751,4.21889,4.21889,0,0,1-1.61133,1.62939A4.55132,4.55132,0,0,1,96.31952,124.06543Zm0-1.2959A2.87014,2.87014,0,0,0,97.76,122.3916,2.826,2.826,0,0,0,98.84,121.25781a3.86414,3.86414,0,0,0,.41406-1.87207,3.9207,3.9207,0,0,0-.40528-1.87207,2.76094,2.76094,0,0,0-1.07128-1.13428,2.83382,2.83382,0,0,0-1.42188-.37793,2.86654,2.86654,0,0,0-1.43945.37793,2.81773,2.81773,0,0,0-1.08008,1.13428,4.43908,4.43908,0,0,0,0,3.74414,2.833,2.833,0,0,0,1.07129,1.13379A2.78263,2.78263,0,0,0,96.31952,122.76953Z"/>
    <path class="j" d="M106.1662,124.06543a3.3516,3.3516,0,0,1-2.51953-.96289,4.101,4.101,0,0,1-.93653-2.96094v-5.22021h1.51172v5.0581q0,2.79053,2.28613,2.79a2.5096,2.5096,0,0,0,1.93555-.83691,3.41218,3.41218,0,0,0,.76465-2.38477v-4.62646h1.51172v8.92822h-1.36817l-.10742-1.60205a3.11194,3.11194,0,0,1-1.2334,1.33252A3.55267,3.55267,0,0,1,106.1662,124.06543Z"/>
    <path class="j" d="M121.39374,124.06543a4.27069,4.27069,0,0,1-2.66407-.80957,3.15881,3.15881,0,0,1-1.24218-2.19629h1.54785a2.13548,2.13548,0,0,0,.74707,1.21484,2.431,2.431,0,0,0,1.6289.51319,2.05523,2.05523,0,0,0,1.4043-.40479,1.25567,1.25567,0,0,0,.4502-.96338,1.06855,1.06855,0,0,0-.585-1.07959,7.79349,7.79349,0,0,0-1.64746-.48632,9.2259,9.2259,0,0,1-1.43946-.41407,3.26354,3.26354,0,0,1-1.20605-.76465,1.78222,1.78222,0,0,1-.48633-1.30517,2.409,2.409,0,0,1,.87305-1.917,3.52042,3.52042,0,0,1,2.36718-.74707,3.67586,3.67586,0,0,1,2.33106.71093,2.83924,2.83924,0,0,1,1.05273,2.02491h-1.49414a1.55617,1.55617,0,0,0-.585-1.0708,2.09275,2.09275,0,0,0-1.32324-.38721,2.002,2.002,0,0,0-1.251.34228,1.08421,1.08421,0,0,0-.44043.89991.93509.93509,0,0,0,.56641.84619,6.09219,6.09219,0,0,0,1.53906.522,13.4812,13.4812,0,0,1,1.5752.44092,2.98124,2.98124,0,0,1,1.22461.77392,2.10591,2.10591,0,0,1,.47656,1.48487,2.4413,2.4413,0,0,1-.90918,1.98974A3.76911,3.76911,0,0,1,121.39374,124.06543Z"/>
    <path class="j" d="M131.07733,124.06543a4.52263,4.52263,0,0,1-2.29492-.585,4.20313,4.20313,0,0,1-1.60156-1.6377,5.45266,5.45266,0,0,1,0-4.91406,4.20433,4.20433,0,0,1,1.60156-1.63818,4.52263,4.52263,0,0,1,2.29492-.585,4.28834,4.28834,0,0,1,2.67285.82812,3.60944,3.60944,0,0,1,1.37793,2.21387h-1.54883a1.98623,1.98623,0,0,0-.88183-1.28711,2.92626,2.92626,0,0,0-1.6377-.459,2.79619,2.79619,0,0,0-2.502,1.51221,4.43908,4.43908,0,0,0,0,3.74414,2.87586,2.87586,0,0,0,1.08008,1.14258,2.77993,2.77993,0,0,0,1.42187.38721,2.92227,2.92227,0,0,0,1.6377-.459,1.9924,1.9924,0,0,0,.88183-1.30517h1.54883a3.57924,3.57924,0,0,1-1.36816,2.19629A4.26942,4.26942,0,0,1,131.07733,124.06543Z"/>
    <path class="j" d="M137.23358,123.84961v-12.96h1.51172v5.562a3.17759,3.17759,0,0,1,1.27832-1.28711,3.64751,3.64751,0,0,1,1.7998-.459,3.30792,3.30792,0,0,1,2.48438.96289,4.11106,4.11106,0,0,1,.93555,2.96093v5.22022h-1.49414V118.7915q0-2.78979-2.25-2.79a2.59359,2.59359,0,0,0-1.96192.83692,3.33665,3.33665,0,0,0-.792,2.38525v4.626Z"/>
    <path class="j" d="M147.52948,123.84961v-8.92822h1.36816l.126,1.71045a3.23159,3.23159,0,0,1,1.25977-1.4043,3.90758,3.90758,0,0,1,2.08789-.522v1.584h-.41407a3.73548,3.73548,0,0,0-1.458.2793,2.21064,2.21064,0,0,0-1.06153.94482,3.58885,3.58885,0,0,0-.39648,1.83594v4.5Z"/>
    <path class="j" d="M157.03339,124.06543a4.04251,4.04251,0,0,1-1.85352-.37793,2.57113,2.57113,0,0,1-1.09863-1.00781,2.70737,2.70737,0,0,1-.35938-1.36817,2.42423,2.42423,0,0,1,1.04395-2.106,4.84683,4.84683,0,0,1,2.84375-.7378h2.41211v-.10839a2.38232,2.38232,0,0,0-.61231-1.773,2.233,2.233,0,0,0-1.63769-.603,2.61315,2.61315,0,0,0-1.52149.4414,1.93323,1.93323,0,0,0-.80078,1.28663h-1.54785a2.86155,2.86155,0,0,1,.65723-1.6377,3.66863,3.66863,0,0,1,1.41308-1.01709,4.64661,4.64661,0,0,1,1.79981-.35107,3.38019,3.38019,0,0,1,3.76172,3.65381v5.49023h-1.34961l-.08985-1.60205a3.55453,3.55453,0,0,1-1.10742,1.2876A3.2515,3.2515,0,0,1,157.03339,124.06543Zm.23437-1.27783a2.45849,2.45849,0,0,0,1.48438-.4502,2.86975,2.86975,0,0,0,.94531-1.16992,3.64434,3.64434,0,0,0,.32422-1.51172v-.01806h-2.28614a2.96318,2.96318,0,0,0-1.88086.459,1.43059,1.43059,0,0,0-.54882,1.14307,1.385,1.385,0,0,0,.51269,1.125A2.22053,2.22053,0,0,0,157.26776,122.7876Zm.03613-8.604V113.0498l3.7793-2.28613v1.314Z"/>
    <path class="j" d="M163.801,123.84961v-8.92822h1.36817l.08984,1.602a3.24474,3.24474,0,0,1,1.24219-1.332,3.49958,3.49958,0,0,1,1.83594-.48584,3.38253,3.38253,0,0,1,2.52832.96289,4.08237,4.08237,0,0,1,.94531,2.96093v5.22022H170.299V118.7915q0-2.78979-2.30469-2.79a2.49109,2.49109,0,0,0-1.917.83692,3.41346,3.41346,0,0,0-.76465,2.38525v4.626Z"/>
    <path class="j" d="M174.09686,123.84961v-12.96h1.51172v7.79394l3.6543-3.7622h1.85351l-3.96,4.03222,4.46387,4.896h-1.92578l-4.08594-4.626v4.626Z"/>
    <path class="j" d="M186.58807,124.06543a4.49914,4.49914,0,0,1-2.26758-.5752,4.167,4.167,0,0,1-1.59277-1.62939,5.01058,5.01058,0,0,1-.585-2.4751,4.95094,4.95094,0,0,1,.59375-2.4751,4.198,4.198,0,0,1,1.61133-1.6289,4.76945,4.76945,0,0,1,4.54492,0,4.15925,4.15925,0,0,1,1.59277,1.6289,5.02108,5.02108,0,0,1,.585,2.4751,4.9611,4.9611,0,0,1-.59375,2.4751,4.21894,4.21894,0,0,1-1.61132,1.62939A4.55136,4.55136,0,0,1,186.58807,124.06543Zm0-1.2959a2.87012,2.87012,0,0,0,1.44043-.37793,2.826,2.826,0,0,0,1.08008-1.13379,3.86414,3.86414,0,0,0,.41406-1.87207,3.9207,3.9207,0,0,0-.40527-1.87207,2.7609,2.7609,0,0,0-1.07129-1.13428,2.83381,2.83381,0,0,0-1.42187-.37793,2.86655,2.86655,0,0,0-1.43946.37793,2.81779,2.81779,0,0,0-1.08008,1.13428,4.43908,4.43908,0,0,0,0,3.74414,2.83311,2.83311,0,0,0,1.07129,1.13379A2.78266,2.78266,0,0,0,186.58807,122.76953Z"/>
    <path class="j" d="M196.43475,124.06543a3.35163,3.35163,0,0,1-2.51953-.96289,4.101,4.101,0,0,1-.93652-2.96094v-5.22021h1.51172v5.0581q0,2.79053,2.28613,2.79a2.50963,2.50963,0,0,0,1.93555-.83691,3.41223,3.41223,0,0,0,.76464-2.38477v-4.62646h1.51172v8.92822H199.6203l-.10742-1.60205a3.112,3.112,0,0,1-1.2334,1.33252A3.5527,3.5527,0,0,1,196.43475,124.06543Z"/>
    <path class="j" d="M211.76971,123.84961a2.89106,2.89106,0,0,1-1.92578-.59375,2.70088,2.70088,0,0,1-.70215-2.14209v-4.91406h-1.54785v-1.27832h1.54785l.19825-2.1416h1.31445v2.1416h2.62793v1.27832h-2.62793v4.91406a1.48327,1.48327,0,0,0,.3418,1.14307,1.86461,1.86461,0,0,0,1.206.29687h.93555v1.2959Z"/>
    <path class="j" d="M219.0246,124.06543a4.49908,4.49908,0,0,1-2.26758-.5752,4.167,4.167,0,0,1-1.59278-1.62939,5.01058,5.01058,0,0,1-.585-2.4751,4.95094,4.95094,0,0,1,.59375-2.4751,4.198,4.198,0,0,1,1.61133-1.6289,4.76945,4.76945,0,0,1,4.54492,0,4.15934,4.15934,0,0,1,1.59278,1.6289,5.02108,5.02108,0,0,1,.585,2.4751,4.9611,4.9611,0,0,1-.59375,2.4751,4.219,4.219,0,0,1-1.61133,1.62939A4.55132,4.55132,0,0,1,219.0246,124.06543Zm0-1.2959a2.87014,2.87014,0,0,0,1.44043-.37793,2.82592,2.82592,0,0,0,1.08007-1.13379,3.86414,3.86414,0,0,0,.41407-1.87207,3.9207,3.9207,0,0,0-.40528-1.87207,2.7609,2.7609,0,0,0-1.07129-1.13428,2.83379,2.83379,0,0,0-1.42187-.37793,2.86651,2.86651,0,0,0-1.43945.37793,2.81773,2.81773,0,0,0-1.08008,1.13428,4.43908,4.43908,0,0,0,0,3.74414,2.833,2.833,0,0,0,1.07129,1.13379A2.78263,2.78263,0,0,0,219.0246,122.76953Z"/>
    <path class="j" d="M29.82831,145.44922V144.207l4.96777-6.42578H29.91815v-1.25977h6.57031v1.24219l-4.96777,6.42578h5.05762v1.25977Z"/>
    <path class="j" d="M41.54608,145.665a4.04257,4.04257,0,0,1-1.85352-.37793,2.57125,2.57125,0,0,1-1.09863-1.00781,2.70746,2.70746,0,0,1-.35937-1.36817,2.4228,2.4228,0,0,1,1.04394-2.10547,4.84329,4.84329,0,0,1,2.84375-.73828h2.41211v-.1084a2.3819,2.3819,0,0,0-.6123-1.77246,2.23138,2.23138,0,0,0-1.6377-.60351,2.61312,2.61312,0,0,0-1.52148.4414,1.93312,1.93312,0,0,0-.80078,1.28711H38.41424a2.86453,2.86453,0,0,1,.65723-1.63867,3.67754,3.67754,0,0,1,1.41309-1.0166,4.6374,4.6374,0,0,1,1.7998-.35059,3.38013,3.38013,0,0,1,3.76172,3.65332v5.49024H44.69647l-.08984-1.60156a3.54232,3.54232,0,0,1-1.10742,1.28613A3.24483,3.24483,0,0,1,41.54608,145.665Zm.23438-1.27734a2.46177,2.46177,0,0,0,1.48437-.4502,2.873,2.873,0,0,0,.94531-1.16992,3.65047,3.65047,0,0,0,.32422-1.5127v-.01758H42.24823a2.96621,2.96621,0,0,0-1.88086.459,1.43034,1.43034,0,0,0-.54883,1.14258,1.383,1.383,0,0,0,.5127,1.125A2.21783,2.21783,0,0,0,41.78046,144.3877Z"/>
    <path class="j" d="M53.08417,145.665a4.13556,4.13556,0,0,1-1.95313-.4502,3.1124,3.1124,0,0,1-1.30469-1.25976l-.14355,1.49414H48.31464v-12.96h1.51171v5.50781a4.22725,4.22725,0,0,1,1.2334-1.16992,3.67549,3.67549,0,0,1,2.043-.52149,4.3287,4.3287,0,0,1,2.32129.61133,4.19515,4.19515,0,0,1,1.53906,1.67383,5.17841,5.17841,0,0,1,.54981,2.41211,5.11966,5.11966,0,0,1-.54981,2.40332,4.12182,4.12182,0,0,1-1.54785,1.65625A4.42678,4.42678,0,0,1,53.08417,145.665Zm-.16211-1.31348a2.89148,2.89148,0,0,0,2.66406-1.60254,4.12092,4.12092,0,0,0,0-3.52734,2.98878,2.98878,0,0,0-5.32813,0,4.13015,4.13015,0,0,0,0,3.52734,2.89148,2.89148,0,0,0,2.66407,1.60254Z"/>
    <path class="j" d="M63.632,145.665a4.37408,4.37408,0,0,1-2.26758-.585,4.14875,4.14875,0,0,1-1.55762-1.62891,5.08939,5.08939,0,0,1-.5664-2.46582,5.17064,5.17064,0,0,1,.55761-2.457,4.05931,4.05931,0,0,1,1.55664-1.6377,4.48827,4.48827,0,0,1,2.31348-.585,4.16625,4.16625,0,0,1,2.24121.585,3.96436,3.96436,0,0,1,1.44922,1.53907,4.33638,4.33638,0,0,1,.50391,2.05176c0,.13183-.00391.26367-.00977.3955-.00586.13282-.00879.28223-.00879.4502H60.73456a3.4991,3.4991,0,0,0,.47656,1.70117,2.81285,2.81285,0,0,0,2.4209,1.35938,2.70784,2.70784,0,0,0,1.5664-.43262,2.47373,2.47373,0,0,0,.918-1.16992h1.49414A3.91926,3.91926,0,0,1,63.632,145.665Zm0-8.082a3.02426,3.02426,0,0,0-1.917.65722,2.64935,2.64935,0,0,0-.96289,1.917h5.61621a2.55554,2.55554,0,0,0-.82813-1.88965A2.77975,2.77975,0,0,0,63.632,137.583Z"/>
    <path class="j" d="M69.85956,145.44922v-8.92774h1.36816l.126,1.71a3.23427,3.23427,0,0,1,1.25976-1.4043,3.90755,3.90755,0,0,1,2.08789-.52149v1.584h-.41406a3.74409,3.74409,0,0,0-1.458.27832,2.21176,2.21176,0,0,0-1.06152.94531,3.58887,3.58887,0,0,0-.39648,1.83594v4.5Z"/>
    <path class="j" d="M80.06561,145.665a4.37408,4.37408,0,0,1-2.26758-.585,4.1488,4.1488,0,0,1-1.55761-1.62891,5.08939,5.08939,0,0,1-.56641-2.46582,5.17064,5.17064,0,0,1,.55762-2.457,4.05924,4.05924,0,0,1,1.55664-1.6377,4.48823,4.48823,0,0,1,2.31347-.585,4.16631,4.16631,0,0,1,2.24122.585,3.96433,3.96433,0,0,1,1.44921,1.53907,4.33627,4.33627,0,0,1,.50391,2.05176c0,.13183-.00391.26367-.00977.3955-.00585.13282-.00878.28223-.00878.4502H77.16815a3.49931,3.49931,0,0,0,.47656,1.70117,2.81285,2.81285,0,0,0,2.4209,1.35938,2.70787,2.70787,0,0,0,1.56641-.43262,2.47385,2.47385,0,0,0,.918-1.16992h1.49414a3.91928,3.91928,0,0,1-3.97852,2.87988Zm0-8.082a3.02428,3.02428,0,0,0-1.917.65722,2.64935,2.64935,0,0,0-.96289,1.917h5.61621a2.55551,2.55551,0,0,0-.82813-1.88965A2.77975,2.77975,0,0,0,80.06561,137.583Z"/>
    <path class="j" d="M89.31756,149.40918v-1.2959h.70215a1.37674,1.37674,0,0,0,.96289-.2793,1.25332,1.25332,0,0,0,.29688-.94433V136.52148H92.7912V146.9248a2.45449,2.45449,0,0,1-.64746,1.89063,2.70934,2.70934,0,0,1-1.89063.59375ZM92.05389,134.541a1.02087,1.02087,0,0,1-.73828-.29688.99764.99764,0,0,1-.30566-.74707.94694.94694,0,0,1,.30566-.71973,1.03737,1.03737,0,0,1,.73828-.28808,1.00646,1.00646,0,0,1,.72852.28808.9605.9605,0,0,1,.29687.71973,1.01272,1.01272,0,0,1-.29687.74707A.9908.9908,0,0,1,92.05389,134.541Z"/>
    <path class="j" d="M99.4328,145.665a4.37408,4.37408,0,0,1-2.26758-.585,4.14875,4.14875,0,0,1-1.55762-1.62891,5.08939,5.08939,0,0,1-.5664-2.46582,5.17064,5.17064,0,0,1,.55761-2.457,4.05933,4.05933,0,0,1,1.55665-1.6377,4.48823,4.48823,0,0,1,2.31347-.585,4.16625,4.16625,0,0,1,2.24121.585,3.96428,3.96428,0,0,1,1.44922,1.53907,4.33638,4.33638,0,0,1,.50391,2.05176c0,.13183-.00391.26367-.00977.3955-.00586.13282-.00879.28223-.00879.4502H96.53534a3.4991,3.4991,0,0,0,.47656,1.70117,2.81285,2.81285,0,0,0,2.4209,1.35938,2.70789,2.70789,0,0,0,1.56641-.43262,2.47377,2.47377,0,0,0,.918-1.16992h1.49414A3.91926,3.91926,0,0,1,99.4328,145.665Zm0-8.082a3.02426,3.02426,0,0,0-1.917.65722,2.64935,2.64935,0,0,0-.96289,1.917h5.61621a2.55554,2.55554,0,0,0-.82813-1.88965A2.77975,2.77975,0,0,0,99.4328,137.583Z"/>
    <path class="j" d="M105.66131,145.44922v-8.92774h1.36817l.08984,1.60157a3.24773,3.24773,0,0,1,1.24219-1.332,3.49472,3.49472,0,0,1,1.83594-.48536,3.37881,3.37881,0,0,1,2.52832.96289,4.08084,4.08084,0,0,1,.94531,2.96094v5.21973h-1.51172V140.3916q0-2.79053-2.30469-2.79a2.48781,2.48781,0,0,0-1.917.83692,3.41054,3.41054,0,0,0-.76465,2.38476v4.626Z"/>
    <path class="j" d="M120.72674,149.40918v-12.8877h1.36817l.14355,1.47559a4.22725,4.22725,0,0,1,1.2334-1.16992,3.67547,3.67547,0,0,1,2.043-.52149,4.3287,4.3287,0,0,1,2.32129.61133,4.19515,4.19515,0,0,1,1.53906,1.67383,5.17841,5.17841,0,0,1,.54981,2.41211,5.11966,5.11966,0,0,1-.54981,2.40332,4.12182,4.12182,0,0,1-1.54785,1.65625,4.4268,4.4268,0,0,1-2.33105.60254,4.13556,4.13556,0,0,1-1.95313-.4502,3.11234,3.11234,0,0,1-1.30469-1.25976v5.4541Zm4.60743-5.05762a2.89148,2.89148,0,0,0,2.66406-1.60254,4.12092,4.12092,0,0,0,0-3.52734,2.98878,2.98878,0,0,0-5.32813,0,4.13015,4.13015,0,0,0,0,3.52734,2.89148,2.89148,0,0,0,2.66407,1.60254Z"/>
    <path class="j" d="M135.00018,145.665a4.04249,4.04249,0,0,1-1.85351-.37793,2.57122,2.57122,0,0,1-1.09864-1.00781,2.70746,2.70746,0,0,1-.35937-1.36817,2.4228,2.4228,0,0,1,1.04394-2.10547,4.84331,4.84331,0,0,1,2.84375-.73828h2.41211v-.1084a2.3819,2.3819,0,0,0-.6123-1.77246,2.23137,2.23137,0,0,0-1.6377-.60351,2.61312,2.61312,0,0,0-1.52148.4414,1.93316,1.93316,0,0,0-.80078,1.28711h-1.54785a2.86452,2.86452,0,0,1,.65722-1.63867,3.67761,3.67761,0,0,1,1.41309-1.0166,4.63743,4.63743,0,0,1,1.7998-.35059,3.38013,3.38013,0,0,1,3.76172,3.65332v5.49024h-1.34961l-.08984-1.60156a3.54223,3.54223,0,0,1-1.10742,1.28613A3.24483,3.24483,0,0,1,135.00018,145.665Zm.23438-1.27734a2.46177,2.46177,0,0,0,1.48437-.4502,2.873,2.873,0,0,0,.94531-1.16992,3.65047,3.65047,0,0,0,.32422-1.5127v-.01758h-2.28613a2.96623,2.96623,0,0,0-1.88086.459,1.43034,1.43034,0,0,0-.54883,1.14258,1.383,1.383,0,0,0,.5127,1.125A2.21785,2.21785,0,0,0,135.23456,144.3877Zm.03613-8.6045v-1.13379l3.7793-2.28613v1.31348Z"/>
    <path class="j" d="M141.76874,145.44922v-8.92774h1.36816l.126,1.71a3.23427,3.23427,0,0,1,1.25976-1.4043,3.90755,3.90755,0,0,1,2.08789-.52149v1.584h-.41406a3.74409,3.74409,0,0,0-1.458.27832,2.21176,2.21176,0,0,0-1.06152.94531,3.58887,3.58887,0,0,0-.39648,1.83594v4.5Z"/>
    <path class="j" d="M153.07245,145.44922v-8.92774h1.36816l.10742,1.2959a3.02409,3.02409,0,0,1,1.15235-1.11621,3.30586,3.30586,0,0,1,1.62011-.39551,3.65948,3.65948,0,0,1,1.82715.43164,2.849,2.849,0,0,1,1.17871,1.31348,3.40342,3.40342,0,0,1,1.28711-1.27734,3.50668,3.50668,0,0,1,1.77246-.46778,3.43593,3.43593,0,0,1,2.55664.96289,4.05688,4.05688,0,0,1,.95411,2.96094v5.21973h-1.49414V140.3916a3.31276,3.31276,0,0,0-.5586-2.08887,1.92662,1.92662,0,0,0-1.60156-.70117,2.2491,2.2491,0,0,0-1.791.83692,3.57644,3.57644,0,0,0-.71093,2.38476v4.626H159.2287V140.3916a3.31276,3.31276,0,0,0-.5586-2.08887,1.92662,1.92662,0,0,0-1.60156-.70117,2.23134,2.23134,0,0,0-1.77344.83692,3.58173,3.58173,0,0,0-.71093,2.38476v4.626Z"/>
    <path class="j" d="M170.09979,134.541a1.015,1.015,0,0,1-1.04394-1.04395.9605.9605,0,0,1,.29687-.71973,1.10133,1.10133,0,0,1,1.48535,0,.95037.95037,0,0,1,.30567.71973,1.00125,1.00125,0,0,1-.30567.74707A1.02246,1.02246,0,0,1,170.09979,134.541Zm-.75586,10.9082v-8.92774h1.51172v8.92774Z"/>
    <path class="j" d="M173.48358,145.44922v-8.92774h1.36816l.08985,1.60157a3.24767,3.24767,0,0,1,1.24219-1.332,3.49466,3.49466,0,0,1,1.83593-.48536,3.37879,3.37879,0,0,1,2.52832.96289,4.0808,4.0808,0,0,1,.94532,2.96094v5.21973h-1.51172V140.3916q0-2.79053-2.30469-2.79a2.48779,2.48779,0,0,0-1.917.83692,3.4105,3.4105,0,0,0-.76465,2.38476v4.626Z"/>
    <path class="j" d="M187.03729,145.665a3.34794,3.34794,0,0,1-2.51953-.96289,4.101,4.101,0,0,1-.93652-2.96094v-5.21973H185.093v5.05762q0,2.79052,2.28613,2.79a2.51128,2.51128,0,0,0,1.93555-.83691,3.41057,3.41057,0,0,0,.76464-2.38477v-4.626H191.591v8.92774h-1.36816l-.10742-1.60156a3.11629,3.11629,0,0,1-1.2334,1.332A3.5527,3.5527,0,0,1,187.03729,145.665Z"/>
    <path class="j" d="M197.60272,145.44922a2.891,2.891,0,0,1-1.92578-.59375,2.70209,2.70209,0,0,1-.70215-2.14258v-4.91406h-1.54785v-1.27735h1.54785l.19824-2.14257h1.31446v2.14257h2.62793v1.27735h-2.62793v4.91406a1.48386,1.48386,0,0,0,.34179,1.14356,1.86168,1.86168,0,0,0,1.20606.29687h.93555v1.2959Z"/>
    <path class="j" d="M201.56268,145.53906a1.01274,1.01274,0,0,1-.74707-.29687,1.04352,1.04352,0,0,1,0-1.458,1.01274,1.01274,0,0,1,.74707-.29688,1.02591,1.02591,0,1,1,0,2.05176Z"/>
  </g>
</svg>
